<?xml version="1.0" encoding="UTF-8" standalone="no"?>
<svg
   xmlns:dc="http://purl.org/dc/elements/1.1/"
   xmlns:cc="http://creativecommons.org/ns#"
   xmlns:rdf="http://www.w3.org/1999/02/22-rdf-syntax-ns#"
   xmlns:svg="http://www.w3.org/2000/svg"
   xmlns="http://www.w3.org/2000/svg"
   id="svg4562"
   version="1.1"
   viewBox="0 0 133.11757 112.79315"
   height="112.79315mm"
   width="133.11757mm">
  <defs
     id="defs4556">
    <marker
       style="overflow:visible"
       id="Arrow2Mend"
       refX="0"
       refY="0"
       orient="auto">
      <path
         transform="scale(-0.6)"
         d="M 8.7185878,4.0337352 -2.2072895,0.01601326 8.7185884,-4.0017078 c -1.7454984,2.3720609 -1.7354408,5.6174519 -6e-7,8.035443 z"
         style="fill:#000000;fill-opacity:1;fill-rule:evenodd;stroke:#000000;stroke-width:0.625;stroke-linejoin:round;stroke-opacity:1"
         id="path4831" />
    </marker>
    <marker
       style="overflow:visible"
       id="Arrow2Mend-3"
       refX="0"
       refY="0"
       orient="auto">
      <path
         transform="scale(-0.6)"
         d="M 8.7185878,4.0337352 -2.2072895,0.01601326 8.7185884,-4.0017078 c -1.7454984,2.3720609 -1.7354408,5.6174519 -6e-7,8.035443 z"
         style="fill:#000000;fill-opacity:1;fill-rule:evenodd;stroke:#000000;stroke-width:0.625;stroke-linejoin:round;stroke-opacity:1"
         id="path4831-6" />
    </marker>
  </defs>
  <metadata
     id="metadata4559">
    <rdf:RDF>
      <cc:Work
         rdf:about="">
        <dc:format>image/svg+xml</dc:format>
        <dc:type
           rdf:resource="http://purl.org/dc/dcmitype/StillImage" />
        <dc:title></dc:title>
      </cc:Work>
    </rdf:RDF>
  </metadata>
  <g
     transform="translate(7.5944987,-14.290179)"
     id="layer1">
    <g
       transform="translate(9.8273812,-6.8035714)"
       id="g6331">
      <g
         transform="translate(-46.374544,-37.98661)"
         id="g3801-7">
        <circle
           r="5"
           style="fill:#ff0000;stroke-width:0.23759548"
           cy="76.931541"
           cx="62.452377"
           id="path3713-0" />
        <circle
           r="5"
           style="fill:#008080;stroke-width:0.23759548"
           cy="103.47619"
           cx="129.64583"
           id="path3713-3-9" />
        <circle
           r="5"
           style="fill:#ff0000;stroke-width:0.23759548"
           cy="84.95536"
           cx="71.059525"
           id="path3713-6-3" />
        <circle
           r="5"
           style="fill:#ff0000;stroke-width:0.23759548"
           cy="88.35714"
           cx="84.288689"
           id="path3713-7-6" />
        <circle
           r="5"
           style="fill:#008080;stroke-width:0.23759548"
           cy="81.175598"
           cx="96.761902"
           id="path3713-5-0" />
        <circle
           r="5"
           style="fill:#008080;stroke-width:0.23759548"
           cy="69.08036"
           cx="107.34524"
           id="path3713-35-6" />
        <circle
           r="5"
           style="fill:#008080;stroke-width:0.23759548"
           cy="70.214287"
           cx="122.08631"
           id="path3713-62-2" />
        <circle
           r="5"
           style="fill:#008080;stroke-width:0.23759548"
           cy="83.443451"
           cx="129.26785"
           id="path3713-9-6" />
        <circle
           r="5"
           style="fill:#008080;stroke-width:0.23759548"
           cy="92.136909"
           cx="118.30654"
           id="path3713-1-1" />
        <circle
           r="5"
           style="fill:#008080;stroke-width:0.23759548"
           cy="104.9881"
           cx="114.52679"
           id="path3713-2-8" />
        <path
           id="path3788-7"
           d="m 62.607885,76.836724 8.285356,7.951269 13.497112,3.608139 12.428032,-7.416729 10.623965,-12.227581 14.56619,1.469983 7.41673,13.096205 -10.95805,8.953529 -3.80859,12.695301 15.30118,-1.26953 v -0.0668"
           style="fill:none;stroke:#000000;stroke-width:0.26458332px;stroke-linecap:butt;stroke-linejoin:miter;stroke-opacity:1" />
      </g>
      <path
         style="fill:none;stroke:#000000;stroke-width:0.56500006;stroke-linecap:butt;stroke-linejoin:miter;stroke-miterlimit:4;stroke-dasharray:none;stroke-opacity:1;marker-end:url(#Arrow2Mend)"
         d="m 10.142595,50.327481 17.317003,9.887021"
         id="path3997" />
    </g>
    <g
       transform="translate(19.654762,-31.75)"
       id="g6352">
      <g
         transform="translate(-79.701638,61.799101)"
         id="g3864">
        <circle
           id="path3713"
           cx="62.452377"
           cy="76.931541"
           style="fill:#008080;stroke-width:0.23759548"
           r="5" />
        <circle
           id="path3713-3"
           cx="175.56995"
           cy="71.915184"
           style="fill:#ff0000;stroke-width:0.23759548"
           r="5" />
        <circle
           id="path3713-6"
           cx="72.193451"
           cy="84.577385"
           style="fill:#008080;stroke-width:0.23759548"
           r="5" />
        <circle
           id="path3713-7"
           cx="82.776787"
           cy="76.639877"
           style="fill:#008080;stroke-width:0.23759548"
           r="5" />
        <circle
           id="path3713-5"
           cx="96.572914"
           cy="81.175598"
           style="fill:#008080;stroke-width:0.23759548"
           r="5" />
        <circle
           id="path3713-35"
           cx="137.01637"
           cy="87.034233"
           style="fill:#008080;stroke-width:0.23759548"
           r="5" />
        <circle
           id="path3713-62"
           cx="125.11012"
           cy="80.041664"
           style="fill:#008080;stroke-width:0.23759548"
           r="5" />
        <circle
           id="path3713-9"
           cx="110.55803"
           cy="77.017853"
           style="fill:#008080;stroke-width:0.23759548"
           r="5" />
        <circle
           id="path3713-1"
           cx="150.05655"
           cy="85.711319"
           style="fill:#ff0000;stroke-width:0.23759548"
           r="5" />
        <circle
           id="path3713-2"
           cx="163.66368"
           cy="79.663689"
           style="fill:#ff0000;stroke-width:0.23759548"
           r="5" />
        <path
           id="path3851"
           d="m 62.555058,76.828869 10.394347,8.504462 10.016368,-8.693452 14.174107,4.535715 13.79613,-4.535715 14.3631,3.779764 11.52827,7.181545 13.41815,-1.889879 13.98512,-6.614583 11.71726,-7.370537"
           style="fill:none;stroke:#000000;stroke-width:0.26458332px;stroke-linecap:butt;stroke-linejoin:miter;stroke-opacity:1" />
      </g>
      <path
         style="fill:none;stroke:#000000;stroke-width:0.56500006;stroke-linecap:butt;stroke-linejoin:miter;stroke-miterlimit:4;stroke-dasharray:none;stroke-opacity:1;marker-end:url(#Arrow2Mend-3)"
         d="m 80.593991,152.68614 17.23889,-10.02261"
         id="path3997-7" />
    </g>
  </g>
</svg>
