<?xml version="1.0" encoding="utf-8" standalone="no"?>
<!DOCTYPE svg PUBLIC "-//W3C//DTD SVG 1.1//EN"
  "http://www.w3.org/Graphics/SVG/1.1/DTD/svg11.dtd">
<!-- Created with matplotlib (https://matplotlib.org/) -->
<svg height="363.08425pt" version="1.1" viewBox="0 0 279.999029 363.08425" width="279.999029pt" xmlns="http://www.w3.org/2000/svg" xmlns:xlink="http://www.w3.org/1999/xlink">
 <defs>
  <style type="text/css">
*{stroke-linecap:butt;stroke-linejoin:round;}
  </style>
 </defs>
 <g id="figure_1">
  <g id="patch_1">
   <path d="M 0 363.08425 
L 279.999029 363.08425 
L 279.999029 0 
L 0 0 
z
" style="fill:#ffffff;"/>
  </g>
  <g id="axes_1">
   <g id="patch_2">
    <path d="M 53.478125 323.428 
L 272.799029 323.428 
L 272.799029 7.2 
L 53.478125 7.2 
z
" style="fill:#ffffff;"/>
   </g>
   <g id="matplotlib.axis_1">
    <g id="xtick_1">
     <g id="line2d_1">
      <defs>
       <path d="M 0 0 
L 0 3.5 
" id="m89b72e6b06" style="stroke:#000000;stroke-width:0.8;"/>
      </defs>
      <g>
       <use style="stroke:#000000;stroke-width:0.8;" x="95.46897" xlink:href="#m89b72e6b06" y="323.428"/>
      </g>
     </g>
     <g id="text_1">
      <!-- $\mathdefault{10^{2}}$ -->
      <defs>
       <path d="M 12.40625 8.296875 
L 28.515625 8.296875 
L 28.515625 63.921875 
L 10.984375 60.40625 
L 10.984375 69.390625 
L 28.421875 72.90625 
L 38.28125 72.90625 
L 38.28125 8.296875 
L 54.390625 8.296875 
L 54.390625 0 
L 12.40625 0 
z
" id="DejaVuSans-49"/>
       <path d="M 31.78125 66.40625 
Q 24.171875 66.40625 20.328125 58.90625 
Q 16.5 51.421875 16.5 36.375 
Q 16.5 21.390625 20.328125 13.890625 
Q 24.171875 6.390625 31.78125 6.390625 
Q 39.453125 6.390625 43.28125 13.890625 
Q 47.125 21.390625 47.125 36.375 
Q 47.125 51.421875 43.28125 58.90625 
Q 39.453125 66.40625 31.78125 66.40625 
z
M 31.78125 74.21875 
Q 44.046875 74.21875 50.515625 64.515625 
Q 56.984375 54.828125 56.984375 36.375 
Q 56.984375 17.96875 50.515625 8.265625 
Q 44.046875 -1.421875 31.78125 -1.421875 
Q 19.53125 -1.421875 13.0625 8.265625 
Q 6.59375 17.96875 6.59375 36.375 
Q 6.59375 54.828125 13.0625 64.515625 
Q 19.53125 74.21875 31.78125 74.21875 
z
" id="DejaVuSans-48"/>
       <path d="M 19.1875 8.296875 
L 53.609375 8.296875 
L 53.609375 0 
L 7.328125 0 
L 7.328125 8.296875 
Q 12.9375 14.109375 22.625 23.890625 
Q 32.328125 33.6875 34.8125 36.53125 
Q 39.546875 41.84375 41.421875 45.53125 
Q 43.3125 49.21875 43.3125 52.78125 
Q 43.3125 58.59375 39.234375 62.25 
Q 35.15625 65.921875 28.609375 65.921875 
Q 23.96875 65.921875 18.8125 64.3125 
Q 13.671875 62.703125 7.8125 59.421875 
L 7.8125 69.390625 
Q 13.765625 71.78125 18.9375 73 
Q 24.125 74.21875 28.421875 74.21875 
Q 39.75 74.21875 46.484375 68.546875 
Q 53.21875 62.890625 53.21875 53.421875 
Q 53.21875 48.921875 51.53125 44.890625 
Q 49.859375 40.875 45.40625 35.40625 
Q 44.1875 33.984375 37.640625 27.21875 
Q 31.109375 20.453125 19.1875 8.296875 
z
" id="DejaVuSans-50"/>
      </defs>
      <g transform="translate(86.66897 340.126437)scale(0.1 -0.1)">
       <use transform="translate(0 0.765625)" xlink:href="#DejaVuSans-49"/>
       <use transform="translate(63.623047 0.765625)" xlink:href="#DejaVuSans-48"/>
       <use transform="translate(128.203125 39.046875)scale(0.7)" xlink:href="#DejaVuSans-50"/>
      </g>
     </g>
    </g>
    <g id="xtick_2">
     <g id="line2d_2">
      <g>
       <use style="stroke:#000000;stroke-width:0.8;" x="141.281684" xlink:href="#m89b72e6b06" y="323.428"/>
      </g>
     </g>
     <g id="text_2">
      <!-- $\mathdefault{10^{3}}$ -->
      <defs>
       <path d="M 40.578125 39.3125 
Q 47.65625 37.796875 51.625 33 
Q 55.609375 28.21875 55.609375 21.1875 
Q 55.609375 10.40625 48.1875 4.484375 
Q 40.765625 -1.421875 27.09375 -1.421875 
Q 22.515625 -1.421875 17.65625 -0.515625 
Q 12.796875 0.390625 7.625 2.203125 
L 7.625 11.71875 
Q 11.71875 9.328125 16.59375 8.109375 
Q 21.484375 6.890625 26.8125 6.890625 
Q 36.078125 6.890625 40.9375 10.546875 
Q 45.796875 14.203125 45.796875 21.1875 
Q 45.796875 27.640625 41.28125 31.265625 
Q 36.765625 34.90625 28.71875 34.90625 
L 20.21875 34.90625 
L 20.21875 43.015625 
L 29.109375 43.015625 
Q 36.375 43.015625 40.234375 45.921875 
Q 44.09375 48.828125 44.09375 54.296875 
Q 44.09375 59.90625 40.109375 62.90625 
Q 36.140625 65.921875 28.71875 65.921875 
Q 24.65625 65.921875 20.015625 65.03125 
Q 15.375 64.15625 9.8125 62.3125 
L 9.8125 71.09375 
Q 15.4375 72.65625 20.34375 73.4375 
Q 25.25 74.21875 29.59375 74.21875 
Q 40.828125 74.21875 47.359375 69.109375 
Q 53.90625 64.015625 53.90625 55.328125 
Q 53.90625 49.265625 50.4375 45.09375 
Q 46.96875 40.921875 40.578125 39.3125 
z
" id="DejaVuSans-51"/>
      </defs>
      <g transform="translate(132.481684 340.126437)scale(0.1 -0.1)">
       <use transform="translate(0 0.765625)" xlink:href="#DejaVuSans-49"/>
       <use transform="translate(63.623047 0.765625)" xlink:href="#DejaVuSans-48"/>
       <use transform="translate(128.203125 39.046875)scale(0.7)" xlink:href="#DejaVuSans-51"/>
      </g>
     </g>
    </g>
    <g id="xtick_3">
     <g id="line2d_3">
      <g>
       <use style="stroke:#000000;stroke-width:0.8;" x="187.094398" xlink:href="#m89b72e6b06" y="323.428"/>
      </g>
     </g>
     <g id="text_3">
      <!-- $\mathdefault{10^{4}}$ -->
      <defs>
       <path d="M 37.796875 64.3125 
L 12.890625 25.390625 
L 37.796875 25.390625 
z
M 35.203125 72.90625 
L 47.609375 72.90625 
L 47.609375 25.390625 
L 58.015625 25.390625 
L 58.015625 17.1875 
L 47.609375 17.1875 
L 47.609375 0 
L 37.796875 0 
L 37.796875 17.1875 
L 4.890625 17.1875 
L 4.890625 26.703125 
z
" id="DejaVuSans-52"/>
      </defs>
      <g transform="translate(178.294398 340.126437)scale(0.1 -0.1)">
       <use transform="translate(0 0.684375)" xlink:href="#DejaVuSans-49"/>
       <use transform="translate(63.623047 0.684375)" xlink:href="#DejaVuSans-48"/>
       <use transform="translate(128.203125 38.965625)scale(0.7)" xlink:href="#DejaVuSans-52"/>
      </g>
     </g>
    </g>
    <g id="xtick_4">
     <g id="line2d_4">
      <g>
       <use style="stroke:#000000;stroke-width:0.8;" x="232.907112" xlink:href="#m89b72e6b06" y="323.428"/>
      </g>
     </g>
     <g id="text_4">
      <!-- $\mathdefault{10^{5}}$ -->
      <defs>
       <path d="M 10.796875 72.90625 
L 49.515625 72.90625 
L 49.515625 64.59375 
L 19.828125 64.59375 
L 19.828125 46.734375 
Q 21.96875 47.46875 24.109375 47.828125 
Q 26.265625 48.1875 28.421875 48.1875 
Q 40.625 48.1875 47.75 41.5 
Q 54.890625 34.8125 54.890625 23.390625 
Q 54.890625 11.625 47.5625 5.09375 
Q 40.234375 -1.421875 26.90625 -1.421875 
Q 22.3125 -1.421875 17.546875 -0.640625 
Q 12.796875 0.140625 7.71875 1.703125 
L 7.71875 11.625 
Q 12.109375 9.234375 16.796875 8.0625 
Q 21.484375 6.890625 26.703125 6.890625 
Q 35.15625 6.890625 40.078125 11.328125 
Q 45.015625 15.765625 45.015625 23.390625 
Q 45.015625 31 40.078125 35.4375 
Q 35.15625 39.890625 26.703125 39.890625 
Q 22.75 39.890625 18.8125 39.015625 
Q 14.890625 38.140625 10.796875 36.28125 
z
" id="DejaVuSans-53"/>
      </defs>
      <g transform="translate(224.107112 340.126437)scale(0.1 -0.1)">
       <use transform="translate(0 0.684375)" xlink:href="#DejaVuSans-49"/>
       <use transform="translate(63.623047 0.684375)" xlink:href="#DejaVuSans-48"/>
       <use transform="translate(128.203125 38.965625)scale(0.7)" xlink:href="#DejaVuSans-53"/>
      </g>
     </g>
    </g>
    <g id="xtick_5">
     <g id="line2d_5">
      <defs>
       <path d="M 0 0 
L 0 2 
" id="m866e1bbd1c" style="stroke:#000000;stroke-width:0.4;"/>
      </defs>
      <g>
       <use style="stroke:#000000;stroke-width:0.4;" x="63.447257" xlink:href="#m866e1bbd1c" y="323.428"/>
      </g>
     </g>
    </g>
    <g id="xtick_6">
     <g id="line2d_6">
      <g>
       <use style="stroke:#000000;stroke-width:0.4;" x="71.514475" xlink:href="#m866e1bbd1c" y="323.428"/>
      </g>
     </g>
    </g>
    <g id="xtick_7">
     <g id="line2d_7">
      <g>
       <use style="stroke:#000000;stroke-width:0.4;" x="77.238258" xlink:href="#m866e1bbd1c" y="323.428"/>
      </g>
     </g>
    </g>
    <g id="xtick_8">
     <g id="line2d_8">
      <g>
       <use style="stroke:#000000;stroke-width:0.4;" x="81.677969" xlink:href="#m866e1bbd1c" y="323.428"/>
      </g>
     </g>
    </g>
    <g id="xtick_9">
     <g id="line2d_9">
      <g>
       <use style="stroke:#000000;stroke-width:0.4;" x="85.305477" xlink:href="#m866e1bbd1c" y="323.428"/>
      </g>
     </g>
    </g>
    <g id="xtick_10">
     <g id="line2d_10">
      <g>
       <use style="stroke:#000000;stroke-width:0.4;" x="88.372491" xlink:href="#m866e1bbd1c" y="323.428"/>
      </g>
     </g>
    </g>
    <g id="xtick_11">
     <g id="line2d_11">
      <g>
       <use style="stroke:#000000;stroke-width:0.4;" x="91.029259" xlink:href="#m866e1bbd1c" y="323.428"/>
      </g>
     </g>
    </g>
    <g id="xtick_12">
     <g id="line2d_12">
      <g>
       <use style="stroke:#000000;stroke-width:0.4;" x="93.372695" xlink:href="#m866e1bbd1c" y="323.428"/>
      </g>
     </g>
    </g>
    <g id="xtick_13">
     <g id="line2d_13">
      <g>
       <use style="stroke:#000000;stroke-width:0.4;" x="109.259971" xlink:href="#m866e1bbd1c" y="323.428"/>
      </g>
     </g>
    </g>
    <g id="xtick_14">
     <g id="line2d_14">
      <g>
       <use style="stroke:#000000;stroke-width:0.4;" x="117.327189" xlink:href="#m866e1bbd1c" y="323.428"/>
      </g>
     </g>
    </g>
    <g id="xtick_15">
     <g id="line2d_15">
      <g>
       <use style="stroke:#000000;stroke-width:0.4;" x="123.050972" xlink:href="#m866e1bbd1c" y="323.428"/>
      </g>
     </g>
    </g>
    <g id="xtick_16">
     <g id="line2d_16">
      <g>
       <use style="stroke:#000000;stroke-width:0.4;" x="127.490683" xlink:href="#m866e1bbd1c" y="323.428"/>
      </g>
     </g>
    </g>
    <g id="xtick_17">
     <g id="line2d_17">
      <g>
       <use style="stroke:#000000;stroke-width:0.4;" x="131.118191" xlink:href="#m866e1bbd1c" y="323.428"/>
      </g>
     </g>
    </g>
    <g id="xtick_18">
     <g id="line2d_18">
      <g>
       <use style="stroke:#000000;stroke-width:0.4;" x="134.185205" xlink:href="#m866e1bbd1c" y="323.428"/>
      </g>
     </g>
    </g>
    <g id="xtick_19">
     <g id="line2d_19">
      <g>
       <use style="stroke:#000000;stroke-width:0.4;" x="136.841973" xlink:href="#m866e1bbd1c" y="323.428"/>
      </g>
     </g>
    </g>
    <g id="xtick_20">
     <g id="line2d_20">
      <g>
       <use style="stroke:#000000;stroke-width:0.4;" x="139.185409" xlink:href="#m866e1bbd1c" y="323.428"/>
      </g>
     </g>
    </g>
    <g id="xtick_21">
     <g id="line2d_21">
      <g>
       <use style="stroke:#000000;stroke-width:0.4;" x="155.072685" xlink:href="#m866e1bbd1c" y="323.428"/>
      </g>
     </g>
    </g>
    <g id="xtick_22">
     <g id="line2d_22">
      <g>
       <use style="stroke:#000000;stroke-width:0.4;" x="163.139903" xlink:href="#m866e1bbd1c" y="323.428"/>
      </g>
     </g>
    </g>
    <g id="xtick_23">
     <g id="line2d_23">
      <g>
       <use style="stroke:#000000;stroke-width:0.4;" x="168.863686" xlink:href="#m866e1bbd1c" y="323.428"/>
      </g>
     </g>
    </g>
    <g id="xtick_24">
     <g id="line2d_24">
      <g>
       <use style="stroke:#000000;stroke-width:0.4;" x="173.303397" xlink:href="#m866e1bbd1c" y="323.428"/>
      </g>
     </g>
    </g>
    <g id="xtick_25">
     <g id="line2d_25">
      <g>
       <use style="stroke:#000000;stroke-width:0.4;" x="176.930905" xlink:href="#m866e1bbd1c" y="323.428"/>
      </g>
     </g>
    </g>
    <g id="xtick_26">
     <g id="line2d_26">
      <g>
       <use style="stroke:#000000;stroke-width:0.4;" x="179.997919" xlink:href="#m866e1bbd1c" y="323.428"/>
      </g>
     </g>
    </g>
    <g id="xtick_27">
     <g id="line2d_27">
      <g>
       <use style="stroke:#000000;stroke-width:0.4;" x="182.654687" xlink:href="#m866e1bbd1c" y="323.428"/>
      </g>
     </g>
    </g>
    <g id="xtick_28">
     <g id="line2d_28">
      <g>
       <use style="stroke:#000000;stroke-width:0.4;" x="184.998123" xlink:href="#m866e1bbd1c" y="323.428"/>
      </g>
     </g>
    </g>
    <g id="xtick_29">
     <g id="line2d_29">
      <g>
       <use style="stroke:#000000;stroke-width:0.4;" x="200.885399" xlink:href="#m866e1bbd1c" y="323.428"/>
      </g>
     </g>
    </g>
    <g id="xtick_30">
     <g id="line2d_30">
      <g>
       <use style="stroke:#000000;stroke-width:0.4;" x="208.952617" xlink:href="#m866e1bbd1c" y="323.428"/>
      </g>
     </g>
    </g>
    <g id="xtick_31">
     <g id="line2d_31">
      <g>
       <use style="stroke:#000000;stroke-width:0.4;" x="214.6764" xlink:href="#m866e1bbd1c" y="323.428"/>
      </g>
     </g>
    </g>
    <g id="xtick_32">
     <g id="line2d_32">
      <g>
       <use style="stroke:#000000;stroke-width:0.4;" x="219.116111" xlink:href="#m866e1bbd1c" y="323.428"/>
      </g>
     </g>
    </g>
    <g id="xtick_33">
     <g id="line2d_33">
      <g>
       <use style="stroke:#000000;stroke-width:0.4;" x="222.743618" xlink:href="#m866e1bbd1c" y="323.428"/>
      </g>
     </g>
    </g>
    <g id="xtick_34">
     <g id="line2d_34">
      <g>
       <use style="stroke:#000000;stroke-width:0.4;" x="225.810633" xlink:href="#m866e1bbd1c" y="323.428"/>
      </g>
     </g>
    </g>
    <g id="xtick_35">
     <g id="line2d_35">
      <g>
       <use style="stroke:#000000;stroke-width:0.4;" x="228.467401" xlink:href="#m866e1bbd1c" y="323.428"/>
      </g>
     </g>
    </g>
    <g id="xtick_36">
     <g id="line2d_36">
      <g>
       <use style="stroke:#000000;stroke-width:0.4;" x="230.810837" xlink:href="#m866e1bbd1c" y="323.428"/>
      </g>
     </g>
    </g>
    <g id="xtick_37">
     <g id="line2d_37">
      <g>
       <use style="stroke:#000000;stroke-width:0.4;" x="246.698113" xlink:href="#m866e1bbd1c" y="323.428"/>
      </g>
     </g>
    </g>
    <g id="xtick_38">
     <g id="line2d_38">
      <g>
       <use style="stroke:#000000;stroke-width:0.4;" x="254.765331" xlink:href="#m866e1bbd1c" y="323.428"/>
      </g>
     </g>
    </g>
    <g id="xtick_39">
     <g id="line2d_39">
      <g>
       <use style="stroke:#000000;stroke-width:0.4;" x="260.489114" xlink:href="#m866e1bbd1c" y="323.428"/>
      </g>
     </g>
    </g>
    <g id="xtick_40">
     <g id="line2d_40">
      <g>
       <use style="stroke:#000000;stroke-width:0.4;" x="264.928825" xlink:href="#m866e1bbd1c" y="323.428"/>
      </g>
     </g>
    </g>
    <g id="xtick_41">
     <g id="line2d_41">
      <g>
       <use style="stroke:#000000;stroke-width:0.4;" x="268.556332" xlink:href="#m866e1bbd1c" y="323.428"/>
      </g>
     </g>
    </g>
    <g id="xtick_42">
     <g id="line2d_42">
      <g>
       <use style="stroke:#000000;stroke-width:0.4;" x="271.623347" xlink:href="#m866e1bbd1c" y="323.428"/>
      </g>
     </g>
    </g>
    <g id="text_5">
     <!-- $\tau$ -->
     <defs>
      <path d="M 32.859375 9.96875 
Q 34.1875 7.625 39.453125 7.625 
L 43.75 7.625 
L 42.28125 0 
L 36.921875 0 
Q 28.125 0 25 4.6875 
Q 21.921875 9.46875 23.96875 19.828125 
L 29 45.703125 
L 8.453125 45.703125 
L 10.203125 54.6875 
L 60.640625 54.6875 
L 58.890625 45.703125 
L 38.1875 45.703125 
L 33.015625 19.28125 
Q 31.640625 12.203125 32.859375 9.96875 
z
" id="DejaVuSans-Oblique-964"/>
     </defs>
     <g transform="translate(160.088577 353.804562)scale(0.1 -0.1)">
      <use transform="translate(0 0.3125)" xlink:href="#DejaVuSans-Oblique-964"/>
     </g>
    </g>
   </g>
   <g id="matplotlib.axis_2">
    <g id="ytick_1">
     <g id="line2d_43">
      <defs>
       <path d="M 0 0 
L -3.5 0 
" id="m2b729cb6f8" style="stroke:#000000;stroke-width:0.8;"/>
      </defs>
      <g>
       <use style="stroke:#000000;stroke-width:0.8;" x="53.478125" xlink:href="#m2b729cb6f8" y="323.428"/>
      </g>
     </g>
     <g id="text_6">
      <!-- $\mathdefault{10^{-2}}$ -->
      <defs>
       <path d="M 10.59375 35.5 
L 73.1875 35.5 
L 73.1875 27.203125 
L 10.59375 27.203125 
z
" id="DejaVuSans-8722"/>
      </defs>
      <g transform="translate(20.878125 327.227219)scale(0.1 -0.1)">
       <use transform="translate(0 0.765625)" xlink:href="#DejaVuSans-49"/>
       <use transform="translate(63.623047 0.765625)" xlink:href="#DejaVuSans-48"/>
       <use transform="translate(128.203125 39.046875)scale(0.7)" xlink:href="#DejaVuSans-8722"/>
       <use transform="translate(186.855469 39.046875)scale(0.7)" xlink:href="#DejaVuSans-50"/>
      </g>
     </g>
    </g>
    <g id="ytick_2">
     <g id="line2d_44">
      <g>
       <use style="stroke:#000000;stroke-width:0.8;" x="53.478125" xlink:href="#m2b729cb6f8" y="286.103901"/>
      </g>
     </g>
     <g id="text_7">
      <!-- $\mathdefault{10^{-1}}$ -->
      <g transform="translate(20.878125 289.90312)scale(0.1 -0.1)">
       <use transform="translate(0 0.684375)" xlink:href="#DejaVuSans-49"/>
       <use transform="translate(63.623047 0.684375)" xlink:href="#DejaVuSans-48"/>
       <use transform="translate(128.203125 38.965625)scale(0.7)" xlink:href="#DejaVuSans-8722"/>
       <use transform="translate(186.855469 38.965625)scale(0.7)" xlink:href="#DejaVuSans-49"/>
      </g>
     </g>
    </g>
    <g id="ytick_3">
     <g id="line2d_45">
      <g>
       <use style="stroke:#000000;stroke-width:0.8;" x="53.478125" xlink:href="#m2b729cb6f8" y="248.779803"/>
      </g>
     </g>
     <g id="text_8">
      <!-- $\mathdefault{10^{0}}$ -->
      <g transform="translate(26.778125 252.579021)scale(0.1 -0.1)">
       <use transform="translate(0 0.765625)" xlink:href="#DejaVuSans-49"/>
       <use transform="translate(63.623047 0.765625)" xlink:href="#DejaVuSans-48"/>
       <use transform="translate(128.203125 39.046875)scale(0.7)" xlink:href="#DejaVuSans-48"/>
      </g>
     </g>
    </g>
    <g id="ytick_4">
     <g id="line2d_46">
      <g>
       <use style="stroke:#000000;stroke-width:0.8;" x="53.478125" xlink:href="#m2b729cb6f8" y="211.455704"/>
      </g>
     </g>
     <g id="text_9">
      <!-- $\mathdefault{10^{1}}$ -->
      <g transform="translate(26.778125 215.254923)scale(0.1 -0.1)">
       <use transform="translate(0 0.684375)" xlink:href="#DejaVuSans-49"/>
       <use transform="translate(63.623047 0.684375)" xlink:href="#DejaVuSans-48"/>
       <use transform="translate(128.203125 38.965625)scale(0.7)" xlink:href="#DejaVuSans-49"/>
      </g>
     </g>
    </g>
    <g id="ytick_5">
     <g id="line2d_47">
      <g>
       <use style="stroke:#000000;stroke-width:0.8;" x="53.478125" xlink:href="#m2b729cb6f8" y="174.131605"/>
      </g>
     </g>
     <g id="text_10">
      <!-- $\mathdefault{10^{2}}$ -->
      <g transform="translate(26.778125 177.930824)scale(0.1 -0.1)">
       <use transform="translate(0 0.765625)" xlink:href="#DejaVuSans-49"/>
       <use transform="translate(63.623047 0.765625)" xlink:href="#DejaVuSans-48"/>
       <use transform="translate(128.203125 39.046875)scale(0.7)" xlink:href="#DejaVuSans-50"/>
      </g>
     </g>
    </g>
    <g id="ytick_6">
     <g id="line2d_48">
      <g>
       <use style="stroke:#000000;stroke-width:0.8;" x="53.478125" xlink:href="#m2b729cb6f8" y="136.807507"/>
      </g>
     </g>
     <g id="text_11">
      <!-- $\mathdefault{10^{3}}$ -->
      <g transform="translate(26.778125 140.606725)scale(0.1 -0.1)">
       <use transform="translate(0 0.765625)" xlink:href="#DejaVuSans-49"/>
       <use transform="translate(63.623047 0.765625)" xlink:href="#DejaVuSans-48"/>
       <use transform="translate(128.203125 39.046875)scale(0.7)" xlink:href="#DejaVuSans-51"/>
      </g>
     </g>
    </g>
    <g id="ytick_7">
     <g id="line2d_49">
      <g>
       <use style="stroke:#000000;stroke-width:0.8;" x="53.478125" xlink:href="#m2b729cb6f8" y="99.483408"/>
      </g>
     </g>
     <g id="text_12">
      <!-- $\mathdefault{10^{4}}$ -->
      <g transform="translate(26.778125 103.282627)scale(0.1 -0.1)">
       <use transform="translate(0 0.684375)" xlink:href="#DejaVuSans-49"/>
       <use transform="translate(63.623047 0.684375)" xlink:href="#DejaVuSans-48"/>
       <use transform="translate(128.203125 38.965625)scale(0.7)" xlink:href="#DejaVuSans-52"/>
      </g>
     </g>
    </g>
    <g id="ytick_8">
     <g id="line2d_50">
      <g>
       <use style="stroke:#000000;stroke-width:0.8;" x="53.478125" xlink:href="#m2b729cb6f8" y="62.159309"/>
      </g>
     </g>
     <g id="text_13">
      <!-- $\mathdefault{10^{5}}$ -->
      <g transform="translate(26.778125 65.958528)scale(0.1 -0.1)">
       <use transform="translate(0 0.684375)" xlink:href="#DejaVuSans-49"/>
       <use transform="translate(63.623047 0.684375)" xlink:href="#DejaVuSans-48"/>
       <use transform="translate(128.203125 38.965625)scale(0.7)" xlink:href="#DejaVuSans-53"/>
      </g>
     </g>
    </g>
    <g id="ytick_9">
     <g id="line2d_51">
      <g>
       <use style="stroke:#000000;stroke-width:0.8;" x="53.478125" xlink:href="#m2b729cb6f8" y="24.83521"/>
      </g>
     </g>
     <g id="text_14">
      <!-- $\mathdefault{10^{6}}$ -->
      <defs>
       <path d="M 33.015625 40.375 
Q 26.375 40.375 22.484375 35.828125 
Q 18.609375 31.296875 18.609375 23.390625 
Q 18.609375 15.53125 22.484375 10.953125 
Q 26.375 6.390625 33.015625 6.390625 
Q 39.65625 6.390625 43.53125 10.953125 
Q 47.40625 15.53125 47.40625 23.390625 
Q 47.40625 31.296875 43.53125 35.828125 
Q 39.65625 40.375 33.015625 40.375 
z
M 52.59375 71.296875 
L 52.59375 62.3125 
Q 48.875 64.0625 45.09375 64.984375 
Q 41.3125 65.921875 37.59375 65.921875 
Q 27.828125 65.921875 22.671875 59.328125 
Q 17.53125 52.734375 16.796875 39.40625 
Q 19.671875 43.65625 24.015625 45.921875 
Q 28.375 48.1875 33.59375 48.1875 
Q 44.578125 48.1875 50.953125 41.515625 
Q 57.328125 34.859375 57.328125 23.390625 
Q 57.328125 12.15625 50.6875 5.359375 
Q 44.046875 -1.421875 33.015625 -1.421875 
Q 20.359375 -1.421875 13.671875 8.265625 
Q 6.984375 17.96875 6.984375 36.375 
Q 6.984375 53.65625 15.1875 63.9375 
Q 23.390625 74.21875 37.203125 74.21875 
Q 40.921875 74.21875 44.703125 73.484375 
Q 48.484375 72.75 52.59375 71.296875 
z
" id="DejaVuSans-54"/>
      </defs>
      <g transform="translate(26.778125 28.634429)scale(0.1 -0.1)">
       <use transform="translate(0 0.765625)" xlink:href="#DejaVuSans-49"/>
       <use transform="translate(63.623047 0.765625)" xlink:href="#DejaVuSans-48"/>
       <use transform="translate(128.203125 39.046875)scale(0.7)" xlink:href="#DejaVuSans-54"/>
      </g>
     </g>
    </g>
    <g id="ytick_10">
     <g id="line2d_52">
      <defs>
       <path d="M 0 0 
L -2 0 
" id="mdf58540f30" style="stroke:#000000;stroke-width:0.4;"/>
      </defs>
      <g>
       <use style="stroke:#000000;stroke-width:0.4;" x="53.478125" xlink:href="#mdf58540f30" y="312.192327"/>
      </g>
     </g>
    </g>
    <g id="ytick_11">
     <g id="line2d_53">
      <g>
       <use style="stroke:#000000;stroke-width:0.4;" x="53.478125" xlink:href="#mdf58540f30" y="305.619879"/>
      </g>
     </g>
    </g>
    <g id="ytick_12">
     <g id="line2d_54">
      <g>
       <use style="stroke:#000000;stroke-width:0.4;" x="53.478125" xlink:href="#mdf58540f30" y="300.956653"/>
      </g>
     </g>
    </g>
    <g id="ytick_13">
     <g id="line2d_55">
      <g>
       <use style="stroke:#000000;stroke-width:0.4;" x="53.478125" xlink:href="#mdf58540f30" y="297.339575"/>
      </g>
     </g>
    </g>
    <g id="ytick_14">
     <g id="line2d_56">
      <g>
       <use style="stroke:#000000;stroke-width:0.4;" x="53.478125" xlink:href="#mdf58540f30" y="294.384206"/>
      </g>
     </g>
    </g>
    <g id="ytick_15">
     <g id="line2d_57">
      <g>
       <use style="stroke:#000000;stroke-width:0.4;" x="53.478125" xlink:href="#mdf58540f30" y="291.885477"/>
      </g>
     </g>
    </g>
    <g id="ytick_16">
     <g id="line2d_58">
      <g>
       <use style="stroke:#000000;stroke-width:0.4;" x="53.478125" xlink:href="#mdf58540f30" y="289.72098"/>
      </g>
     </g>
    </g>
    <g id="ytick_17">
     <g id="line2d_59">
      <g>
       <use style="stroke:#000000;stroke-width:0.4;" x="53.478125" xlink:href="#mdf58540f30" y="287.811758"/>
      </g>
     </g>
    </g>
    <g id="ytick_18">
     <g id="line2d_60">
      <g>
       <use style="stroke:#000000;stroke-width:0.4;" x="53.478125" xlink:href="#mdf58540f30" y="274.868228"/>
      </g>
     </g>
    </g>
    <g id="ytick_19">
     <g id="line2d_61">
      <g>
       <use style="stroke:#000000;stroke-width:0.4;" x="53.478125" xlink:href="#mdf58540f30" y="268.295781"/>
      </g>
     </g>
    </g>
    <g id="ytick_20">
     <g id="line2d_62">
      <g>
       <use style="stroke:#000000;stroke-width:0.4;" x="53.478125" xlink:href="#mdf58540f30" y="263.632555"/>
      </g>
     </g>
    </g>
    <g id="ytick_21">
     <g id="line2d_63">
      <g>
       <use style="stroke:#000000;stroke-width:0.4;" x="53.478125" xlink:href="#mdf58540f30" y="260.015476"/>
      </g>
     </g>
    </g>
    <g id="ytick_22">
     <g id="line2d_64">
      <g>
       <use style="stroke:#000000;stroke-width:0.4;" x="53.478125" xlink:href="#mdf58540f30" y="257.060107"/>
      </g>
     </g>
    </g>
    <g id="ytick_23">
     <g id="line2d_65">
      <g>
       <use style="stroke:#000000;stroke-width:0.4;" x="53.478125" xlink:href="#mdf58540f30" y="254.561379"/>
      </g>
     </g>
    </g>
    <g id="ytick_24">
     <g id="line2d_66">
      <g>
       <use style="stroke:#000000;stroke-width:0.4;" x="53.478125" xlink:href="#mdf58540f30" y="252.396882"/>
      </g>
     </g>
    </g>
    <g id="ytick_25">
     <g id="line2d_67">
      <g>
       <use style="stroke:#000000;stroke-width:0.4;" x="53.478125" xlink:href="#mdf58540f30" y="250.48766"/>
      </g>
     </g>
    </g>
    <g id="ytick_26">
     <g id="line2d_68">
      <g>
       <use style="stroke:#000000;stroke-width:0.4;" x="53.478125" xlink:href="#mdf58540f30" y="237.544129"/>
      </g>
     </g>
    </g>
    <g id="ytick_27">
     <g id="line2d_69">
      <g>
       <use style="stroke:#000000;stroke-width:0.4;" x="53.478125" xlink:href="#mdf58540f30" y="230.971682"/>
      </g>
     </g>
    </g>
    <g id="ytick_28">
     <g id="line2d_70">
      <g>
       <use style="stroke:#000000;stroke-width:0.4;" x="53.478125" xlink:href="#mdf58540f30" y="226.308456"/>
      </g>
     </g>
    </g>
    <g id="ytick_29">
     <g id="line2d_71">
      <g>
       <use style="stroke:#000000;stroke-width:0.4;" x="53.478125" xlink:href="#mdf58540f30" y="222.691377"/>
      </g>
     </g>
    </g>
    <g id="ytick_30">
     <g id="line2d_72">
      <g>
       <use style="stroke:#000000;stroke-width:0.4;" x="53.478125" xlink:href="#mdf58540f30" y="219.736009"/>
      </g>
     </g>
    </g>
    <g id="ytick_31">
     <g id="line2d_73">
      <g>
       <use style="stroke:#000000;stroke-width:0.4;" x="53.478125" xlink:href="#mdf58540f30" y="217.23728"/>
      </g>
     </g>
    </g>
    <g id="ytick_32">
     <g id="line2d_74">
      <g>
       <use style="stroke:#000000;stroke-width:0.4;" x="53.478125" xlink:href="#mdf58540f30" y="215.072783"/>
      </g>
     </g>
    </g>
    <g id="ytick_33">
     <g id="line2d_75">
      <g>
       <use style="stroke:#000000;stroke-width:0.4;" x="53.478125" xlink:href="#mdf58540f30" y="213.163561"/>
      </g>
     </g>
    </g>
    <g id="ytick_34">
     <g id="line2d_76">
      <g>
       <use style="stroke:#000000;stroke-width:0.4;" x="53.478125" xlink:href="#mdf58540f30" y="200.220031"/>
      </g>
     </g>
    </g>
    <g id="ytick_35">
     <g id="line2d_77">
      <g>
       <use style="stroke:#000000;stroke-width:0.4;" x="53.478125" xlink:href="#mdf58540f30" y="193.647583"/>
      </g>
     </g>
    </g>
    <g id="ytick_36">
     <g id="line2d_78">
      <g>
       <use style="stroke:#000000;stroke-width:0.4;" x="53.478125" xlink:href="#mdf58540f30" y="188.984357"/>
      </g>
     </g>
    </g>
    <g id="ytick_37">
     <g id="line2d_79">
      <g>
       <use style="stroke:#000000;stroke-width:0.4;" x="53.478125" xlink:href="#mdf58540f30" y="185.367279"/>
      </g>
     </g>
    </g>
    <g id="ytick_38">
     <g id="line2d_80">
      <g>
       <use style="stroke:#000000;stroke-width:0.4;" x="53.478125" xlink:href="#mdf58540f30" y="182.41191"/>
      </g>
     </g>
    </g>
    <g id="ytick_39">
     <g id="line2d_81">
      <g>
       <use style="stroke:#000000;stroke-width:0.4;" x="53.478125" xlink:href="#mdf58540f30" y="179.913181"/>
      </g>
     </g>
    </g>
    <g id="ytick_40">
     <g id="line2d_82">
      <g>
       <use style="stroke:#000000;stroke-width:0.4;" x="53.478125" xlink:href="#mdf58540f30" y="177.748684"/>
      </g>
     </g>
    </g>
    <g id="ytick_41">
     <g id="line2d_83">
      <g>
       <use style="stroke:#000000;stroke-width:0.4;" x="53.478125" xlink:href="#mdf58540f30" y="175.839462"/>
      </g>
     </g>
    </g>
    <g id="ytick_42">
     <g id="line2d_84">
      <g>
       <use style="stroke:#000000;stroke-width:0.4;" x="53.478125" xlink:href="#mdf58540f30" y="162.895932"/>
      </g>
     </g>
    </g>
    <g id="ytick_43">
     <g id="line2d_85">
      <g>
       <use style="stroke:#000000;stroke-width:0.4;" x="53.478125" xlink:href="#mdf58540f30" y="156.323484"/>
      </g>
     </g>
    </g>
    <g id="ytick_44">
     <g id="line2d_86">
      <g>
       <use style="stroke:#000000;stroke-width:0.4;" x="53.478125" xlink:href="#mdf58540f30" y="151.660259"/>
      </g>
     </g>
    </g>
    <g id="ytick_45">
     <g id="line2d_87">
      <g>
       <use style="stroke:#000000;stroke-width:0.4;" x="53.478125" xlink:href="#mdf58540f30" y="148.04318"/>
      </g>
     </g>
    </g>
    <g id="ytick_46">
     <g id="line2d_88">
      <g>
       <use style="stroke:#000000;stroke-width:0.4;" x="53.478125" xlink:href="#mdf58540f30" y="145.087811"/>
      </g>
     </g>
    </g>
    <g id="ytick_47">
     <g id="line2d_89">
      <g>
       <use style="stroke:#000000;stroke-width:0.4;" x="53.478125" xlink:href="#mdf58540f30" y="142.589083"/>
      </g>
     </g>
    </g>
    <g id="ytick_48">
     <g id="line2d_90">
      <g>
       <use style="stroke:#000000;stroke-width:0.4;" x="53.478125" xlink:href="#mdf58540f30" y="140.424585"/>
      </g>
     </g>
    </g>
    <g id="ytick_49">
     <g id="line2d_91">
      <g>
       <use style="stroke:#000000;stroke-width:0.4;" x="53.478125" xlink:href="#mdf58540f30" y="138.515364"/>
      </g>
     </g>
    </g>
    <g id="ytick_50">
     <g id="line2d_92">
      <g>
       <use style="stroke:#000000;stroke-width:0.4;" x="53.478125" xlink:href="#mdf58540f30" y="125.571833"/>
      </g>
     </g>
    </g>
    <g id="ytick_51">
     <g id="line2d_93">
      <g>
       <use style="stroke:#000000;stroke-width:0.4;" x="53.478125" xlink:href="#mdf58540f30" y="118.999386"/>
      </g>
     </g>
    </g>
    <g id="ytick_52">
     <g id="line2d_94">
      <g>
       <use style="stroke:#000000;stroke-width:0.4;" x="53.478125" xlink:href="#mdf58540f30" y="114.33616"/>
      </g>
     </g>
    </g>
    <g id="ytick_53">
     <g id="line2d_95">
      <g>
       <use style="stroke:#000000;stroke-width:0.4;" x="53.478125" xlink:href="#mdf58540f30" y="110.719081"/>
      </g>
     </g>
    </g>
    <g id="ytick_54">
     <g id="line2d_96">
      <g>
       <use style="stroke:#000000;stroke-width:0.4;" x="53.478125" xlink:href="#mdf58540f30" y="107.763712"/>
      </g>
     </g>
    </g>
    <g id="ytick_55">
     <g id="line2d_97">
      <g>
       <use style="stroke:#000000;stroke-width:0.4;" x="53.478125" xlink:href="#mdf58540f30" y="105.264984"/>
      </g>
     </g>
    </g>
    <g id="ytick_56">
     <g id="line2d_98">
      <g>
       <use style="stroke:#000000;stroke-width:0.4;" x="53.478125" xlink:href="#mdf58540f30" y="103.100487"/>
      </g>
     </g>
    </g>
    <g id="ytick_57">
     <g id="line2d_99">
      <g>
       <use style="stroke:#000000;stroke-width:0.4;" x="53.478125" xlink:href="#mdf58540f30" y="101.191265"/>
      </g>
     </g>
    </g>
    <g id="ytick_58">
     <g id="line2d_100">
      <g>
       <use style="stroke:#000000;stroke-width:0.4;" x="53.478125" xlink:href="#mdf58540f30" y="88.247735"/>
      </g>
     </g>
    </g>
    <g id="ytick_59">
     <g id="line2d_101">
      <g>
       <use style="stroke:#000000;stroke-width:0.4;" x="53.478125" xlink:href="#mdf58540f30" y="81.675287"/>
      </g>
     </g>
    </g>
    <g id="ytick_60">
     <g id="line2d_102">
      <g>
       <use style="stroke:#000000;stroke-width:0.4;" x="53.478125" xlink:href="#mdf58540f30" y="77.012061"/>
      </g>
     </g>
    </g>
    <g id="ytick_61">
     <g id="line2d_103">
      <g>
       <use style="stroke:#000000;stroke-width:0.4;" x="53.478125" xlink:href="#mdf58540f30" y="73.394982"/>
      </g>
     </g>
    </g>
    <g id="ytick_62">
     <g id="line2d_104">
      <g>
       <use style="stroke:#000000;stroke-width:0.4;" x="53.478125" xlink:href="#mdf58540f30" y="70.439614"/>
      </g>
     </g>
    </g>
    <g id="ytick_63">
     <g id="line2d_105">
      <g>
       <use style="stroke:#000000;stroke-width:0.4;" x="53.478125" xlink:href="#mdf58540f30" y="67.940885"/>
      </g>
     </g>
    </g>
    <g id="ytick_64">
     <g id="line2d_106">
      <g>
       <use style="stroke:#000000;stroke-width:0.4;" x="53.478125" xlink:href="#mdf58540f30" y="65.776388"/>
      </g>
     </g>
    </g>
    <g id="ytick_65">
     <g id="line2d_107">
      <g>
       <use style="stroke:#000000;stroke-width:0.4;" x="53.478125" xlink:href="#mdf58540f30" y="63.867166"/>
      </g>
     </g>
    </g>
    <g id="ytick_66">
     <g id="line2d_108">
      <g>
       <use style="stroke:#000000;stroke-width:0.4;" x="53.478125" xlink:href="#mdf58540f30" y="50.923636"/>
      </g>
     </g>
    </g>
    <g id="ytick_67">
     <g id="line2d_109">
      <g>
       <use style="stroke:#000000;stroke-width:0.4;" x="53.478125" xlink:href="#mdf58540f30" y="44.351188"/>
      </g>
     </g>
    </g>
    <g id="ytick_68">
     <g id="line2d_110">
      <g>
       <use style="stroke:#000000;stroke-width:0.4;" x="53.478125" xlink:href="#mdf58540f30" y="39.687963"/>
      </g>
     </g>
    </g>
    <g id="ytick_69">
     <g id="line2d_111">
      <g>
       <use style="stroke:#000000;stroke-width:0.4;" x="53.478125" xlink:href="#mdf58540f30" y="36.070884"/>
      </g>
     </g>
    </g>
    <g id="ytick_70">
     <g id="line2d_112">
      <g>
       <use style="stroke:#000000;stroke-width:0.4;" x="53.478125" xlink:href="#mdf58540f30" y="33.115515"/>
      </g>
     </g>
    </g>
    <g id="ytick_71">
     <g id="line2d_113">
      <g>
       <use style="stroke:#000000;stroke-width:0.4;" x="53.478125" xlink:href="#mdf58540f30" y="30.616787"/>
      </g>
     </g>
    </g>
    <g id="ytick_72">
     <g id="line2d_114">
      <g>
       <use style="stroke:#000000;stroke-width:0.4;" x="53.478125" xlink:href="#mdf58540f30" y="28.452289"/>
      </g>
     </g>
    </g>
    <g id="ytick_73">
     <g id="line2d_115">
      <g>
       <use style="stroke:#000000;stroke-width:0.4;" x="53.478125" xlink:href="#mdf58540f30" y="26.543068"/>
      </g>
     </g>
    </g>
    <g id="ytick_74">
     <g id="line2d_116">
      <g>
       <use style="stroke:#000000;stroke-width:0.4;" x="53.478125" xlink:href="#mdf58540f30" y="13.599537"/>
      </g>
     </g>
    </g>
    <g id="text_15">
     <!-- MSD -->
     <defs>
      <path d="M 9.8125 72.90625 
L 24.515625 72.90625 
L 43.109375 23.296875 
L 61.8125 72.90625 
L 76.515625 72.90625 
L 76.515625 0 
L 66.890625 0 
L 66.890625 64.015625 
L 48.09375 14.015625 
L 38.1875 14.015625 
L 19.390625 64.015625 
L 19.390625 0 
L 9.8125 0 
z
" id="DejaVuSans-77"/>
      <path d="M 53.515625 70.515625 
L 53.515625 60.890625 
Q 47.90625 63.578125 42.921875 64.890625 
Q 37.9375 66.21875 33.296875 66.21875 
Q 25.25 66.21875 20.875 63.09375 
Q 16.5 59.96875 16.5 54.203125 
Q 16.5 49.359375 19.40625 46.890625 
Q 22.3125 44.4375 30.421875 42.921875 
L 36.375 41.703125 
Q 47.40625 39.59375 52.65625 34.296875 
Q 57.90625 29 57.90625 20.125 
Q 57.90625 9.515625 50.796875 4.046875 
Q 43.703125 -1.421875 29.984375 -1.421875 
Q 24.8125 -1.421875 18.96875 -0.25 
Q 13.140625 0.921875 6.890625 3.21875 
L 6.890625 13.375 
Q 12.890625 10.015625 18.65625 8.296875 
Q 24.421875 6.59375 29.984375 6.59375 
Q 38.421875 6.59375 43.015625 9.90625 
Q 47.609375 13.234375 47.609375 19.390625 
Q 47.609375 24.75 44.3125 27.78125 
Q 41.015625 30.8125 33.5 32.328125 
L 27.484375 33.5 
Q 16.453125 35.6875 11.515625 40.375 
Q 6.59375 45.0625 6.59375 53.421875 
Q 6.59375 63.09375 13.40625 68.65625 
Q 20.21875 74.21875 32.171875 74.21875 
Q 37.3125 74.21875 42.625 73.28125 
Q 47.953125 72.359375 53.515625 70.515625 
z
" id="DejaVuSans-83"/>
      <path d="M 19.671875 64.796875 
L 19.671875 8.109375 
L 31.59375 8.109375 
Q 46.6875 8.109375 53.6875 14.9375 
Q 60.6875 21.78125 60.6875 36.53125 
Q 60.6875 51.171875 53.6875 57.984375 
Q 46.6875 64.796875 31.59375 64.796875 
z
M 9.8125 72.90625 
L 30.078125 72.90625 
Q 51.265625 72.90625 61.171875 64.09375 
Q 71.09375 55.28125 71.09375 36.53125 
Q 71.09375 17.671875 61.125 8.828125 
Q 51.171875 0 30.078125 0 
L 9.8125 0 
z
" id="DejaVuSans-68"/>
     </defs>
     <g transform="translate(14.798438 176.652281)rotate(-90)scale(0.1 -0.1)">
      <use xlink:href="#DejaVuSans-77"/>
      <use x="86.279297" xlink:href="#DejaVuSans-83"/>
      <use x="149.755859" xlink:href="#DejaVuSans-68"/>
     </g>
    </g>
   </g>
   <g id="line2d_117">
    <path clip-path="url(#p667fe28b03)" d="M -1 294.590542 
L 63.447257 294.505964 
L 77.238258 276.830217 
L 85.305477 265.663894 
L 95.46897 250.913373 
L 111.156282 227.601508 
L 133.014502 194.704152 
L 159.029063 154.638955 
L 165.862882 144.703172 
L 171.902257 136.300889 
L 177.454519 128.954159 
L 182.604884 122.504482 
L 187.682506 116.5013 
L 192.798274 110.799077 
L 197.815068 105.539289 
L 203.941041 99.455253 
L 210.715843 93.032945 
L 218.220834 86.299673 
L 225.639359 79.864253 
L 232.946864 73.585673 
L 239.042439 67.874018 
L 243.017212 64.173341 
L 245.494524 62.243961 
L 249.273639 59.143918 
L 253.077497 55.810327 
L 254.41744 54.757728 
L 260.28915 49.675307 
L 262.829897 48.192361 
L 262.829897 48.192361 
" style="fill:none;stroke:#1f77b4;stroke-dasharray:5.18,2.24;stroke-dashoffset:0;stroke-width:1.4;"/>
   </g>
   <g id="line2d_118">
    <path clip-path="url(#p667fe28b03)" d="M -1 294.650889 
L 63.447257 294.541389 
L 77.238258 276.750736 
L 85.305477 265.559044 
L 95.46897 250.902302 
L 109.259971 230.267804 
L 126.67848 204.162555 
L 138.28088 187.256654 
L 159.670932 156.421621 
L 165.862882 148.132731 
L 171.029476 141.602219 
L 176.118702 135.510814 
L 181.157249 129.832886 
L 186.240701 124.445307 
L 191.912495 118.769511 
L 199.5482 111.465831 
L 207.221421 104.433046 
L 214.405972 98.04864 
L 225.385459 88.583618 
L 233.386751 81.393816 
L 237.000011 78.48447 
L 240.006774 76.054382 
L 245.414041 71.69681 
L 248.359717 69.889704 
L 251.927348 68.04854 
L 253.762932 67.183033 
L 256.05562 66.224998 
L 257.840302 65.411697 
L 259.226253 64.452269 
L 260.278094 63.769582 
L 260.914296 63.296822 
L 261.49204 62.624525 
L 262.117747 61.968479 
L 262.829012 61.426632 
L 262.829897 61.428972 
" style="fill:none;stroke:#ff7f0e;stroke-dasharray:5.18,2.24;stroke-dashoffset:0;stroke-width:1.4;"/>
   </g>
   <g id="line2d_119">
    <path clip-path="url(#p667fe28b03)" d="M -1 294.822547 
L 63.447257 294.706172 
L 77.238258 276.767494 
L 85.305477 265.595962 
L 95.46897 250.863601 
L 107.163696 233.343488 
L 128.271026 201.580074 
L 135.290834 191.483143 
L 141.675681 182.684839 
L 148.258426 174.012328 
L 157.327496 162.476612 
L 162.465391 156.246157 
L 166.206918 152.055527 
L 169.548144 148.6526 
L 173.303397 145.169878 
L 179.8839 139.420168 
L 197.033796 124.723245 
L 209.771186 114.129853 
L 221.063003 104.261931 
L 228.556733 97.86286 
L 235.663608 92.027118 
L 241.947596 86.152716 
L 250.200879 78.455662 
L 252.530035 76.163089 
L 253.908865 74.786545 
L 257.168807 71.955954 
L 261.045324 69.682509 
L 261.44374 69.439305 
L 261.847347 68.8059 
L 262.150718 68.587139 
L 262.829897 68.405561 
L 262.829897 68.405561 
" style="fill:none;stroke:#2ca02c;stroke-dasharray:5.18,2.24;stroke-dashoffset:0;stroke-width:1.4;"/>
   </g>
   <g id="line2d_120">
    <path clip-path="url(#p667fe28b03)" d="M -1 347.07488 
L 63.447257 294.701764 
L 77.238258 276.767676 
L 85.305477 265.614773 
L 95.46897 250.85728 
L 107.163696 233.305243 
L 125.831705 205.062889 
L 133.014502 194.607103 
L 138.738284 186.669037 
L 143.536495 180.373638 
L 148.536699 174.194821 
L 154.052143 167.759984 
L 166.320287 153.573052 
L 173.54073 145.210408 
L 178.462137 139.840048 
L 182.504903 135.749303 
L 190.755038 127.905848 
L 198.678281 120.582594 
L 210.642874 109.978208 
L 218.254105 103.62781 
L 224.089769 98.982911 
L 231.535836 93.106609 
L 248.532832 78.77228 
L 250.742362 76.91893 
L 252.436315 75.495069 
L 257.047363 71.650683 
L 258.991676 70.098672 
L 259.896419 69.377446 
L 262.600405 67.858046 
L 262.805118 67.558236 
L 262.829897 67.581417 
" style="fill:none;stroke:#d62728;stroke-dasharray:5.18,2.24;stroke-dashoffset:0;stroke-width:1.4;"/>
   </g>
   <g id="line2d_121">
    <path clip-path="url(#p667fe28b03)" d="M -1 294.392685 
L 63.447257 294.317613 
L 77.238258 276.54235 
L 85.305477 265.472426 
L 95.46897 250.815267 
L 104.82026 236.808302 
L 129.021916 200.288942 
L 135.290834 191.330903 
L 140.469481 184.314507 
L 145.238062 178.24162 
L 149.872517 172.711195 
L 155.853028 165.970636 
L 161.767207 159.230364 
L 165.512793 154.594197 
L 170.669354 147.783988 
L 176.118702 140.720936 
L 182.201909 133.23313 
L 187.014653 127.661151 
L 191.724201 122.549869 
L 197.057928 117.11909 
L 202.471823 111.926475 
L 214.726078 100.549219 
L 222.915309 93.290616 
L 231.844639 85.910707 
L 241.430649 78.778794 
L 245.207109 75.762156 
L 247.486107 73.913927 
L 250.247541 71.688418 
L 252.259578 70.298176 
L 254.710874 68.579856 
L 260.063795 64.324533 
L 261.166843 63.42851 
L 261.742074 62.453554 
L 262.238375 61.619295 
L 262.637052 61.501224 
L 262.76878 61.379468 
L 262.829897 61.22904 
L 262.829897 61.22904 
" style="fill:none;stroke:#9467bd;stroke-dasharray:5.18,2.24;stroke-dashoffset:0;stroke-width:1.4;"/>
   </g>
   <g id="line2d_122">
    <path clip-path="url(#p667fe28b03)" d="M 187.094398 62.159309 
L 188.029351 61.397593 
L 188.964305 60.635877 
L 189.899258 59.87416 
L 190.834211 59.112444 
L 191.769165 58.350728 
L 192.704118 57.589011 
L 193.639071 56.827295 
L 194.574025 56.065579 
L 195.508978 55.303862 
L 196.443931 54.542146 
L 197.378885 53.78043 
L 198.313838 53.018714 
L 199.248791 52.256997 
L 200.183745 51.495281 
L 201.118698 50.733565 
L 202.053651 49.971848 
L 202.988605 49.210132 
L 203.923558 48.448416 
L 204.858511 47.686699 
L 205.793465 46.924983 
L 206.728418 46.163267 
L 207.663371 45.401551 
L 208.598325 44.639834 
L 209.533278 43.878118 
L 210.468231 43.116402 
L 211.403185 42.354685 
L 212.338138 41.592969 
L 213.273092 40.831253 
L 214.208045 40.069536 
L 215.142998 39.30782 
L 216.077952 38.546104 
L 217.012905 37.784388 
L 217.947858 37.022671 
L 218.882812 36.260955 
L 219.817765 35.499239 
L 220.752718 34.737522 
L 221.687672 33.975806 
L 222.622625 33.21409 
L 223.557578 32.452373 
L 224.492532 31.690657 
L 225.427485 30.928941 
L 226.362438 30.167225 
L 227.297392 29.405508 
L 228.232345 28.643792 
L 229.167298 27.882076 
L 230.102252 27.120359 
L 231.037205 26.358643 
L 231.972158 25.596927 
L 232.907112 24.83521 
" style="fill:none;stroke:#000000;stroke-linecap:square;"/>
   </g>
   <g id="patch_3">
    <path d="M 53.478125 323.428 
L 53.478125 7.2 
" style="fill:none;stroke:#000000;stroke-linecap:square;stroke-linejoin:miter;stroke-width:0.8;"/>
   </g>
   <g id="patch_4">
    <path d="M 272.799029 323.428 
L 272.799029 7.2 
" style="fill:none;stroke:#000000;stroke-linecap:square;stroke-linejoin:miter;stroke-width:0.8;"/>
   </g>
   <g id="patch_5">
    <path d="M 53.478125 323.428 
L 272.799029 323.428 
" style="fill:none;stroke:#000000;stroke-linecap:square;stroke-linejoin:miter;stroke-width:0.8;"/>
   </g>
   <g id="patch_6">
    <path d="M 53.478125 7.2 
L 272.799029 7.2 
" style="fill:none;stroke:#000000;stroke-linecap:square;stroke-linejoin:miter;stroke-width:0.8;"/>
   </g>
   <g id="legend_1">
    <g id="line2d_123">
     <path d="M 61.578125 20.088281 
L 79.578125 20.088281 
" style="fill:none;stroke:#1f77b4;stroke-dasharray:5.18,2.24;stroke-dashoffset:0;stroke-width:1.4;"/>
    </g>
    <g id="line2d_124"/>
    <g id="text_16">
     <!-- $\tau_{\mathrm{a}} = 5.0 \times 10^{3}dt$ -->
     <defs>
      <path d="M 34.28125 27.484375 
Q 23.390625 27.484375 19.1875 25 
Q 14.984375 22.515625 14.984375 16.5 
Q 14.984375 11.71875 18.140625 8.90625 
Q 21.296875 6.109375 26.703125 6.109375 
Q 34.1875 6.109375 38.703125 11.40625 
Q 43.21875 16.703125 43.21875 25.484375 
L 43.21875 27.484375 
z
M 52.203125 31.203125 
L 52.203125 0 
L 43.21875 0 
L 43.21875 8.296875 
Q 40.140625 3.328125 35.546875 0.953125 
Q 30.953125 -1.421875 24.3125 -1.421875 
Q 15.921875 -1.421875 10.953125 3.296875 
Q 6 8.015625 6 15.921875 
Q 6 25.140625 12.171875 29.828125 
Q 18.359375 34.515625 30.609375 34.515625 
L 43.21875 34.515625 
L 43.21875 35.40625 
Q 43.21875 41.609375 39.140625 45 
Q 35.0625 48.390625 27.6875 48.390625 
Q 23 48.390625 18.546875 47.265625 
Q 14.109375 46.140625 10.015625 43.890625 
L 10.015625 52.203125 
Q 14.9375 54.109375 19.578125 55.046875 
Q 24.21875 56 28.609375 56 
Q 40.484375 56 46.34375 49.84375 
Q 52.203125 43.703125 52.203125 31.203125 
z
" id="DejaVuSans-97"/>
      <path d="M 10.59375 45.40625 
L 73.1875 45.40625 
L 73.1875 37.203125 
L 10.59375 37.203125 
z
M 10.59375 25.484375 
L 73.1875 25.484375 
L 73.1875 17.1875 
L 10.59375 17.1875 
z
" id="DejaVuSans-61"/>
      <path d="M 10.6875 12.40625 
L 21 12.40625 
L 21 0 
L 10.6875 0 
z
" id="DejaVuSans-46"/>
      <path d="M 70.125 53.71875 
L 47.796875 31.296875 
L 70.125 8.984375 
L 64.3125 3.078125 
L 41.890625 25.484375 
L 19.484375 3.078125 
L 13.71875 8.984375 
L 35.984375 31.296875 
L 13.71875 53.71875 
L 19.484375 59.625 
L 41.890625 37.203125 
L 64.3125 59.625 
z
" id="DejaVuSans-215"/>
      <path d="M 41.796875 8.203125 
Q 38.1875 3.46875 33.25 1.015625 
Q 28.328125 -1.421875 22.3125 -1.421875 
Q 14.109375 -1.421875 9.34375 4.171875 
Q 4.59375 9.765625 4.59375 19.484375 
Q 4.59375 27.59375 7.46875 34.9375 
Q 10.359375 42.28125 15.828125 48.09375 
Q 19.4375 51.953125 23.96875 53.96875 
Q 28.515625 56 33.5 56 
Q 38.765625 56 42.796875 53.453125 
Q 46.828125 50.921875 49.03125 46.1875 
L 54.890625 75.984375 
L 63.921875 75.984375 
L 49.125 0 
L 40.09375 0 
z
M 13.921875 21.09375 
Q 13.921875 14.015625 17.109375 10.0625 
Q 20.3125 6.109375 25.984375 6.109375 
Q 30.171875 6.109375 33.765625 8.125 
Q 37.359375 10.15625 40.09375 14.109375 
Q 42.96875 18.21875 44.625 23.578125 
Q 46.296875 28.953125 46.296875 34.1875 
Q 46.296875 40.96875 43.09375 44.765625 
Q 39.890625 48.578125 34.28125 48.578125 
Q 30.03125 48.578125 26.359375 46.578125 
Q 22.703125 44.578125 20.125 40.828125 
Q 17.28125 36.765625 15.59375 31.390625 
Q 13.921875 26.03125 13.921875 21.09375 
z
" id="DejaVuSans-Oblique-100"/>
      <path d="M 42.28125 54.6875 
L 40.921875 47.703125 
L 23 47.703125 
L 17.1875 18.015625 
Q 16.890625 16.359375 16.75 15.234375 
Q 16.609375 14.109375 16.609375 13.484375 
Q 16.609375 10.359375 18.484375 8.9375 
Q 20.359375 7.515625 24.515625 7.515625 
L 33.59375 7.515625 
L 32.078125 0 
L 23.484375 0 
Q 15.484375 0 11.546875 3.125 
Q 7.625 6.25 7.625 12.59375 
Q 7.625 13.71875 7.765625 15.0625 
Q 7.90625 16.40625 8.203125 18.015625 
L 14.015625 47.703125 
L 6.390625 47.703125 
L 7.8125 54.6875 
L 15.28125 54.6875 
L 18.3125 70.21875 
L 27.296875 70.21875 
L 24.3125 54.6875 
z
" id="DejaVuSans-Oblique-116"/>
     </defs>
     <g transform="translate(86.778125 23.238281)scale(0.09 -0.09)">
      <use transform="translate(0 0.765625)" xlink:href="#DejaVuSans-Oblique-964"/>
      <use transform="translate(60.205078 -15.640625)scale(0.7)" xlink:href="#DejaVuSans-97"/>
      <use transform="translate(125.317383 0.765625)" xlink:href="#DejaVuSans-61"/>
      <use transform="translate(228.588867 0.765625)" xlink:href="#DejaVuSans-53"/>
      <use transform="translate(292.211914 0.765625)" xlink:href="#DejaVuSans-46"/>
      <use transform="translate(323.999023 0.765625)" xlink:href="#DejaVuSans-48"/>
      <use transform="translate(407.104492 0.765625)" xlink:href="#DejaVuSans-215"/>
      <use transform="translate(510.375977 0.765625)" xlink:href="#DejaVuSans-49"/>
      <use transform="translate(573.999023 0.765625)" xlink:href="#DejaVuSans-48"/>
      <use transform="translate(638.579102 39.046875)scale(0.7)" xlink:href="#DejaVuSans-51"/>
      <use transform="translate(685.849609 0.765625)" xlink:href="#DejaVuSans-Oblique-100"/>
      <use transform="translate(749.326172 0.765625)" xlink:href="#DejaVuSans-Oblique-116"/>
     </g>
    </g>
    <g id="line2d_125">
     <path d="M 61.578125 34.308281 
L 79.578125 34.308281 
" style="fill:none;stroke:#ff7f0e;stroke-dasharray:5.18,2.24;stroke-dashoffset:0;stroke-width:1.4;"/>
    </g>
    <g id="line2d_126"/>
    <g id="text_17">
     <!-- $\tau_{\mathrm{a}} = 1.0 \times 10^{4}dt$ -->
     <g transform="translate(86.778125 37.458281)scale(0.09 -0.09)">
      <use transform="translate(0 0.684375)" xlink:href="#DejaVuSans-Oblique-964"/>
      <use transform="translate(60.205078 -15.721875)scale(0.7)" xlink:href="#DejaVuSans-97"/>
      <use transform="translate(125.317383 0.684375)" xlink:href="#DejaVuSans-61"/>
      <use transform="translate(228.588867 0.684375)" xlink:href="#DejaVuSans-49"/>
      <use transform="translate(292.211914 0.684375)" xlink:href="#DejaVuSans-46"/>
      <use transform="translate(323.999023 0.684375)" xlink:href="#DejaVuSans-48"/>
      <use transform="translate(407.104492 0.684375)" xlink:href="#DejaVuSans-215"/>
      <use transform="translate(510.375977 0.684375)" xlink:href="#DejaVuSans-49"/>
      <use transform="translate(573.999023 0.684375)" xlink:href="#DejaVuSans-48"/>
      <use transform="translate(638.579102 38.965625)scale(0.7)" xlink:href="#DejaVuSans-52"/>
      <use transform="translate(685.849609 0.684375)" xlink:href="#DejaVuSans-Oblique-100"/>
      <use transform="translate(749.326172 0.684375)" xlink:href="#DejaVuSans-Oblique-116"/>
     </g>
    </g>
    <g id="line2d_127">
     <path d="M 61.578125 48.528281 
L 79.578125 48.528281 
" style="fill:none;stroke:#2ca02c;stroke-dasharray:5.18,2.24;stroke-dashoffset:0;stroke-width:1.4;"/>
    </g>
    <g id="line2d_128"/>
    <g id="text_18">
     <!-- $\tau_{\mathrm{a}} = 2.0 \times 10^{4}dt$ -->
     <g transform="translate(86.778125 51.678281)scale(0.09 -0.09)">
      <use transform="translate(0 0.684375)" xlink:href="#DejaVuSans-Oblique-964"/>
      <use transform="translate(60.205078 -15.721875)scale(0.7)" xlink:href="#DejaVuSans-97"/>
      <use transform="translate(125.317383 0.684375)" xlink:href="#DejaVuSans-61"/>
      <use transform="translate(228.588867 0.684375)" xlink:href="#DejaVuSans-50"/>
      <use transform="translate(292.211914 0.684375)" xlink:href="#DejaVuSans-46"/>
      <use transform="translate(323.999023 0.684375)" xlink:href="#DejaVuSans-48"/>
      <use transform="translate(407.104492 0.684375)" xlink:href="#DejaVuSans-215"/>
      <use transform="translate(510.375977 0.684375)" xlink:href="#DejaVuSans-49"/>
      <use transform="translate(573.999023 0.684375)" xlink:href="#DejaVuSans-48"/>
      <use transform="translate(638.579102 38.965625)scale(0.7)" xlink:href="#DejaVuSans-52"/>
      <use transform="translate(685.849609 0.684375)" xlink:href="#DejaVuSans-Oblique-100"/>
      <use transform="translate(749.326172 0.684375)" xlink:href="#DejaVuSans-Oblique-116"/>
     </g>
    </g>
    <g id="line2d_129">
     <path d="M 61.578125 62.748281 
L 79.578125 62.748281 
" style="fill:none;stroke:#d62728;stroke-dasharray:5.18,2.24;stroke-dashoffset:0;stroke-width:1.4;"/>
    </g>
    <g id="line2d_130"/>
    <g id="text_19">
     <!-- $\tau_{\mathrm{a}} = 5.0 \times 10^{4}dt$ -->
     <g transform="translate(86.778125 65.898281)scale(0.09 -0.09)">
      <use transform="translate(0 0.684375)" xlink:href="#DejaVuSans-Oblique-964"/>
      <use transform="translate(60.205078 -15.721875)scale(0.7)" xlink:href="#DejaVuSans-97"/>
      <use transform="translate(125.317383 0.684375)" xlink:href="#DejaVuSans-61"/>
      <use transform="translate(228.588867 0.684375)" xlink:href="#DejaVuSans-53"/>
      <use transform="translate(292.211914 0.684375)" xlink:href="#DejaVuSans-46"/>
      <use transform="translate(323.999023 0.684375)" xlink:href="#DejaVuSans-48"/>
      <use transform="translate(407.104492 0.684375)" xlink:href="#DejaVuSans-215"/>
      <use transform="translate(510.375977 0.684375)" xlink:href="#DejaVuSans-49"/>
      <use transform="translate(573.999023 0.684375)" xlink:href="#DejaVuSans-48"/>
      <use transform="translate(638.579102 38.965625)scale(0.7)" xlink:href="#DejaVuSans-52"/>
      <use transform="translate(685.849609 0.684375)" xlink:href="#DejaVuSans-Oblique-100"/>
      <use transform="translate(749.326172 0.684375)" xlink:href="#DejaVuSans-Oblique-116"/>
     </g>
    </g>
    <g id="line2d_131">
     <path d="M 61.578125 76.968281 
L 79.578125 76.968281 
" style="fill:none;stroke:#9467bd;stroke-dasharray:5.18,2.24;stroke-dashoffset:0;stroke-width:1.4;"/>
    </g>
    <g id="line2d_132"/>
    <g id="text_20">
     <!-- $\tau_{\mathrm{a}} = 1.0 \times 10^{5}dt$ -->
     <g transform="translate(86.778125 80.118281)scale(0.09 -0.09)">
      <use transform="translate(0 0.684375)" xlink:href="#DejaVuSans-Oblique-964"/>
      <use transform="translate(60.205078 -15.721875)scale(0.7)" xlink:href="#DejaVuSans-97"/>
      <use transform="translate(125.317383 0.684375)" xlink:href="#DejaVuSans-61"/>
      <use transform="translate(228.588867 0.684375)" xlink:href="#DejaVuSans-49"/>
      <use transform="translate(292.211914 0.684375)" xlink:href="#DejaVuSans-46"/>
      <use transform="translate(323.999023 0.684375)" xlink:href="#DejaVuSans-48"/>
      <use transform="translate(407.104492 0.684375)" xlink:href="#DejaVuSans-215"/>
      <use transform="translate(510.375977 0.684375)" xlink:href="#DejaVuSans-49"/>
      <use transform="translate(573.999023 0.684375)" xlink:href="#DejaVuSans-48"/>
      <use transform="translate(638.579102 38.965625)scale(0.7)" xlink:href="#DejaVuSans-53"/>
      <use transform="translate(685.849609 0.684375)" xlink:href="#DejaVuSans-Oblique-100"/>
      <use transform="translate(749.326172 0.684375)" xlink:href="#DejaVuSans-Oblique-116"/>
     </g>
    </g>
    <g id="line2d_133">
     <path d="M 61.578125 90.178594 
L 79.578125 90.178594 
" style="fill:none;stroke:#000000;stroke-linecap:square;"/>
    </g>
    <g id="line2d_134"/>
    <g id="text_21">
     <!-- $\propto \tau^1$ -->
     <defs>
      <path d="M 25.734375 17.71875 
Q 33.796875 17.71875 38.625 29.4375 
Q 32.421875 42.234375 25.734375 42.234375 
Q 20.84375 42.234375 18.359375 38.71875 
Q 15.71875 34.96875 15.71875 29.984375 
Q 15.71875 24.515625 18.359375 21.140625 
Q 21.09375 17.71875 25.734375 17.71875 
z
M 60.6875 17.625 
L 60.6875 11.1875 
L 56.9375 11.1875 
Q 53.375 11.1875 50.734375 12.640625 
Q 48.09375 13.96875 45.5625 17.046875 
Q 44.046875 18.796875 41.65625 22.90625 
Q 38.375 17.046875 35.5 14.453125 
Q 31.9375 11.328125 26.265625 11.328125 
Q 19.671875 11.328125 15.328125 16.265625 
Q 10.75 21.4375 10.75 29.984375 
Q 10.75 38.1875 15.328125 43.75 
Q 19.390625 48.6875 26.375 48.6875 
Q 29.9375 48.6875 32.5625 47.21875 
Q 35.640625 45.609375 37.75 42.828125 
Q 39.703125 40.328125 41.65625 36.96875 
Q 44.921875 42.828125 47.796875 45.40625 
Q 51.375 48.53125 57.03125 48.53125 
L 60.6875 48.53125 
L 60.6875 42.140625 
L 57.5625 42.140625 
Q 50.34375 42.140625 44.671875 30.421875 
Q 50.875 17.625 57.5625 17.625 
z
" id="DejaVuSans-8733"/>
     </defs>
     <g transform="translate(86.778125 93.328594)scale(0.09 -0.09)">
      <use transform="translate(19.482422 0.684375)" xlink:href="#DejaVuSans-8733"/>
      <use transform="translate(110.400391 0.684375)" xlink:href="#DejaVuSans-Oblique-964"/>
      <use transform="translate(175.071615 38.965625)scale(0.7)" xlink:href="#DejaVuSans-49"/>
     </g>
    </g>
   </g>
  </g>
 </g>
 <defs>
  <clipPath id="p667fe28b03">
   <rect height="316.228" width="219.320904" x="53.478125" y="7.2"/>
  </clipPath>
 </defs>
</svg>
