<?xml version="1.0" encoding="utf-8" standalone="no"?>
<!DOCTYPE svg PUBLIC "-//W3C//DTD SVG 1.1//EN"
  "http://www.w3.org/Graphics/SVG/1.1/DTD/svg11.dtd">
<!-- Created with matplotlib (https://matplotlib.org/) -->
<svg height="291.08425pt" version="1.1" viewBox="0 0 243.999029 291.08425" width="243.999029pt" xmlns="http://www.w3.org/2000/svg" xmlns:xlink="http://www.w3.org/1999/xlink">
 <defs>
  <style type="text/css">
*{stroke-linecap:butt;stroke-linejoin:round;}
  </style>
 </defs>
 <g id="figure_1">
  <g id="patch_1">
   <path d="M 0 291.08425 
L 243.999029 291.08425 
L 243.999029 0 
L 0 0 
z
" style="fill:#ffffff;"/>
  </g>
  <g id="axes_1">
   <g id="patch_2">
    <path d="M 53.478125 251.428 
L 236.799029 251.428 
L 236.799029 7.2 
L 53.478125 7.2 
z
" style="fill:#ffffff;"/>
   </g>
   <g id="matplotlib.axis_1">
    <g id="xtick_1">
     <g id="line2d_1">
      <defs>
       <path d="M 0 0 
L 0 3.5 
" id="meb510ab5bf" style="stroke:#000000;stroke-width:0.8;"/>
      </defs>
      <g>
       <use style="stroke:#000000;stroke-width:0.8;" x="88.576465" xlink:href="#meb510ab5bf" y="251.428"/>
      </g>
     </g>
     <g id="text_1">
      <!-- $\mathdefault{10^{2}}$ -->
      <defs>
       <path d="M 12.40625 8.296875 
L 28.515625 8.296875 
L 28.515625 63.921875 
L 10.984375 60.40625 
L 10.984375 69.390625 
L 28.421875 72.90625 
L 38.28125 72.90625 
L 38.28125 8.296875 
L 54.390625 8.296875 
L 54.390625 0 
L 12.40625 0 
z
" id="DejaVuSans-49"/>
       <path d="M 31.78125 66.40625 
Q 24.171875 66.40625 20.328125 58.90625 
Q 16.5 51.421875 16.5 36.375 
Q 16.5 21.390625 20.328125 13.890625 
Q 24.171875 6.390625 31.78125 6.390625 
Q 39.453125 6.390625 43.28125 13.890625 
Q 47.125 21.390625 47.125 36.375 
Q 47.125 51.421875 43.28125 58.90625 
Q 39.453125 66.40625 31.78125 66.40625 
z
M 31.78125 74.21875 
Q 44.046875 74.21875 50.515625 64.515625 
Q 56.984375 54.828125 56.984375 36.375 
Q 56.984375 17.96875 50.515625 8.265625 
Q 44.046875 -1.421875 31.78125 -1.421875 
Q 19.53125 -1.421875 13.0625 8.265625 
Q 6.59375 17.96875 6.59375 36.375 
Q 6.59375 54.828125 13.0625 64.515625 
Q 19.53125 74.21875 31.78125 74.21875 
z
" id="DejaVuSans-48"/>
       <path d="M 19.1875 8.296875 
L 53.609375 8.296875 
L 53.609375 0 
L 7.328125 0 
L 7.328125 8.296875 
Q 12.9375 14.109375 22.625 23.890625 
Q 32.328125 33.6875 34.8125 36.53125 
Q 39.546875 41.84375 41.421875 45.53125 
Q 43.3125 49.21875 43.3125 52.78125 
Q 43.3125 58.59375 39.234375 62.25 
Q 35.15625 65.921875 28.609375 65.921875 
Q 23.96875 65.921875 18.8125 64.3125 
Q 13.671875 62.703125 7.8125 59.421875 
L 7.8125 69.390625 
Q 13.765625 71.78125 18.9375 73 
Q 24.125 74.21875 28.421875 74.21875 
Q 39.75 74.21875 46.484375 68.546875 
Q 53.21875 62.890625 53.21875 53.421875 
Q 53.21875 48.921875 51.53125 44.890625 
Q 49.859375 40.875 45.40625 35.40625 
Q 44.1875 33.984375 37.640625 27.21875 
Q 31.109375 20.453125 19.1875 8.296875 
z
" id="DejaVuSans-50"/>
      </defs>
      <g transform="translate(79.776465 268.126437)scale(0.1 -0.1)">
       <use transform="translate(0 0.765625)" xlink:href="#DejaVuSans-49"/>
       <use transform="translate(63.623047 0.765625)" xlink:href="#DejaVuSans-48"/>
       <use transform="translate(128.203125 39.046875)scale(0.7)" xlink:href="#DejaVuSans-50"/>
      </g>
     </g>
    </g>
    <g id="xtick_2">
     <g id="line2d_2">
      <g>
       <use style="stroke:#000000;stroke-width:0.8;" x="126.869341" xlink:href="#meb510ab5bf" y="251.428"/>
      </g>
     </g>
     <g id="text_2">
      <!-- $\mathdefault{10^{3}}$ -->
      <defs>
       <path d="M 40.578125 39.3125 
Q 47.65625 37.796875 51.625 33 
Q 55.609375 28.21875 55.609375 21.1875 
Q 55.609375 10.40625 48.1875 4.484375 
Q 40.765625 -1.421875 27.09375 -1.421875 
Q 22.515625 -1.421875 17.65625 -0.515625 
Q 12.796875 0.390625 7.625 2.203125 
L 7.625 11.71875 
Q 11.71875 9.328125 16.59375 8.109375 
Q 21.484375 6.890625 26.8125 6.890625 
Q 36.078125 6.890625 40.9375 10.546875 
Q 45.796875 14.203125 45.796875 21.1875 
Q 45.796875 27.640625 41.28125 31.265625 
Q 36.765625 34.90625 28.71875 34.90625 
L 20.21875 34.90625 
L 20.21875 43.015625 
L 29.109375 43.015625 
Q 36.375 43.015625 40.234375 45.921875 
Q 44.09375 48.828125 44.09375 54.296875 
Q 44.09375 59.90625 40.109375 62.90625 
Q 36.140625 65.921875 28.71875 65.921875 
Q 24.65625 65.921875 20.015625 65.03125 
Q 15.375 64.15625 9.8125 62.3125 
L 9.8125 71.09375 
Q 15.4375 72.65625 20.34375 73.4375 
Q 25.25 74.21875 29.59375 74.21875 
Q 40.828125 74.21875 47.359375 69.109375 
Q 53.90625 64.015625 53.90625 55.328125 
Q 53.90625 49.265625 50.4375 45.09375 
Q 46.96875 40.921875 40.578125 39.3125 
z
" id="DejaVuSans-51"/>
      </defs>
      <g transform="translate(118.069341 268.126437)scale(0.1 -0.1)">
       <use transform="translate(0 0.765625)" xlink:href="#DejaVuSans-49"/>
       <use transform="translate(63.623047 0.765625)" xlink:href="#DejaVuSans-48"/>
       <use transform="translate(128.203125 39.046875)scale(0.7)" xlink:href="#DejaVuSans-51"/>
      </g>
     </g>
    </g>
    <g id="xtick_3">
     <g id="line2d_3">
      <g>
       <use style="stroke:#000000;stroke-width:0.8;" x="165.162217" xlink:href="#meb510ab5bf" y="251.428"/>
      </g>
     </g>
     <g id="text_3">
      <!-- $\mathdefault{10^{4}}$ -->
      <defs>
       <path d="M 37.796875 64.3125 
L 12.890625 25.390625 
L 37.796875 25.390625 
z
M 35.203125 72.90625 
L 47.609375 72.90625 
L 47.609375 25.390625 
L 58.015625 25.390625 
L 58.015625 17.1875 
L 47.609375 17.1875 
L 47.609375 0 
L 37.796875 0 
L 37.796875 17.1875 
L 4.890625 17.1875 
L 4.890625 26.703125 
z
" id="DejaVuSans-52"/>
      </defs>
      <g transform="translate(156.362217 268.126437)scale(0.1 -0.1)">
       <use transform="translate(0 0.684375)" xlink:href="#DejaVuSans-49"/>
       <use transform="translate(63.623047 0.684375)" xlink:href="#DejaVuSans-48"/>
       <use transform="translate(128.203125 38.965625)scale(0.7)" xlink:href="#DejaVuSans-52"/>
      </g>
     </g>
    </g>
    <g id="xtick_4">
     <g id="line2d_4">
      <g>
       <use style="stroke:#000000;stroke-width:0.8;" x="203.455092" xlink:href="#meb510ab5bf" y="251.428"/>
      </g>
     </g>
     <g id="text_4">
      <!-- $\mathdefault{10^{5}}$ -->
      <defs>
       <path d="M 10.796875 72.90625 
L 49.515625 72.90625 
L 49.515625 64.59375 
L 19.828125 64.59375 
L 19.828125 46.734375 
Q 21.96875 47.46875 24.109375 47.828125 
Q 26.265625 48.1875 28.421875 48.1875 
Q 40.625 48.1875 47.75 41.5 
Q 54.890625 34.8125 54.890625 23.390625 
Q 54.890625 11.625 47.5625 5.09375 
Q 40.234375 -1.421875 26.90625 -1.421875 
Q 22.3125 -1.421875 17.546875 -0.640625 
Q 12.796875 0.140625 7.71875 1.703125 
L 7.71875 11.625 
Q 12.109375 9.234375 16.796875 8.0625 
Q 21.484375 6.890625 26.703125 6.890625 
Q 35.15625 6.890625 40.078125 11.328125 
Q 45.015625 15.765625 45.015625 23.390625 
Q 45.015625 31 40.078125 35.4375 
Q 35.15625 39.890625 26.703125 39.890625 
Q 22.75 39.890625 18.8125 39.015625 
Q 14.890625 38.140625 10.796875 36.28125 
z
" id="DejaVuSans-53"/>
      </defs>
      <g transform="translate(194.655092 268.126437)scale(0.1 -0.1)">
       <use transform="translate(0 0.684375)" xlink:href="#DejaVuSans-49"/>
       <use transform="translate(63.623047 0.684375)" xlink:href="#DejaVuSans-48"/>
       <use transform="translate(128.203125 38.965625)scale(0.7)" xlink:href="#DejaVuSans-53"/>
      </g>
     </g>
    </g>
    <g id="xtick_5">
     <g id="line2d_5">
      <defs>
       <path d="M 0 0 
L 0 2 
" id="mf048599fe7" style="stroke:#000000;stroke-width:0.4;"/>
      </defs>
      <g>
       <use style="stroke:#000000;stroke-width:0.4;" x="61.810893" xlink:href="#mf048599fe7" y="251.428"/>
      </g>
     </g>
    </g>
    <g id="xtick_6">
     <g id="line2d_6">
      <g>
       <use style="stroke:#000000;stroke-width:0.4;" x="68.553934" xlink:href="#mf048599fe7" y="251.428"/>
      </g>
     </g>
    </g>
    <g id="xtick_7">
     <g id="line2d_7">
      <g>
       <use style="stroke:#000000;stroke-width:0.4;" x="73.338198" xlink:href="#mf048599fe7" y="251.428"/>
      </g>
     </g>
    </g>
    <g id="xtick_8">
     <g id="line2d_8">
      <g>
       <use style="stroke:#000000;stroke-width:0.4;" x="77.049161" xlink:href="#mf048599fe7" y="251.428"/>
      </g>
     </g>
    </g>
    <g id="xtick_9">
     <g id="line2d_9">
      <g>
       <use style="stroke:#000000;stroke-width:0.4;" x="80.081238" xlink:href="#mf048599fe7" y="251.428"/>
      </g>
     </g>
    </g>
    <g id="xtick_10">
     <g id="line2d_10">
      <g>
       <use style="stroke:#000000;stroke-width:0.4;" x="82.644823" xlink:href="#mf048599fe7" y="251.428"/>
      </g>
     </g>
    </g>
    <g id="xtick_11">
     <g id="line2d_11">
      <g>
       <use style="stroke:#000000;stroke-width:0.4;" x="84.865502" xlink:href="#mf048599fe7" y="251.428"/>
      </g>
     </g>
    </g>
    <g id="xtick_12">
     <g id="line2d_12">
      <g>
       <use style="stroke:#000000;stroke-width:0.4;" x="86.824279" xlink:href="#mf048599fe7" y="251.428"/>
      </g>
     </g>
    </g>
    <g id="xtick_13">
     <g id="line2d_13">
      <g>
       <use style="stroke:#000000;stroke-width:0.4;" x="100.103769" xlink:href="#mf048599fe7" y="251.428"/>
      </g>
     </g>
    </g>
    <g id="xtick_14">
     <g id="line2d_14">
      <g>
       <use style="stroke:#000000;stroke-width:0.4;" x="106.84681" xlink:href="#mf048599fe7" y="251.428"/>
      </g>
     </g>
    </g>
    <g id="xtick_15">
     <g id="line2d_15">
      <g>
       <use style="stroke:#000000;stroke-width:0.4;" x="111.631073" xlink:href="#mf048599fe7" y="251.428"/>
      </g>
     </g>
    </g>
    <g id="xtick_16">
     <g id="line2d_16">
      <g>
       <use style="stroke:#000000;stroke-width:0.4;" x="115.342037" xlink:href="#mf048599fe7" y="251.428"/>
      </g>
     </g>
    </g>
    <g id="xtick_17">
     <g id="line2d_17">
      <g>
       <use style="stroke:#000000;stroke-width:0.4;" x="118.374114" xlink:href="#mf048599fe7" y="251.428"/>
      </g>
     </g>
    </g>
    <g id="xtick_18">
     <g id="line2d_18">
      <g>
       <use style="stroke:#000000;stroke-width:0.4;" x="120.937699" xlink:href="#mf048599fe7" y="251.428"/>
      </g>
     </g>
    </g>
    <g id="xtick_19">
     <g id="line2d_19">
      <g>
       <use style="stroke:#000000;stroke-width:0.4;" x="123.158378" xlink:href="#mf048599fe7" y="251.428"/>
      </g>
     </g>
    </g>
    <g id="xtick_20">
     <g id="line2d_20">
      <g>
       <use style="stroke:#000000;stroke-width:0.4;" x="125.117155" xlink:href="#mf048599fe7" y="251.428"/>
      </g>
     </g>
    </g>
    <g id="xtick_21">
     <g id="line2d_21">
      <g>
       <use style="stroke:#000000;stroke-width:0.4;" x="138.396645" xlink:href="#mf048599fe7" y="251.428"/>
      </g>
     </g>
    </g>
    <g id="xtick_22">
     <g id="line2d_22">
      <g>
       <use style="stroke:#000000;stroke-width:0.4;" x="145.139686" xlink:href="#mf048599fe7" y="251.428"/>
      </g>
     </g>
    </g>
    <g id="xtick_23">
     <g id="line2d_23">
      <g>
       <use style="stroke:#000000;stroke-width:0.4;" x="149.923949" xlink:href="#mf048599fe7" y="251.428"/>
      </g>
     </g>
    </g>
    <g id="xtick_24">
     <g id="line2d_24">
      <g>
       <use style="stroke:#000000;stroke-width:0.4;" x="153.634912" xlink:href="#mf048599fe7" y="251.428"/>
      </g>
     </g>
    </g>
    <g id="xtick_25">
     <g id="line2d_25">
      <g>
       <use style="stroke:#000000;stroke-width:0.4;" x="156.66699" xlink:href="#mf048599fe7" y="251.428"/>
      </g>
     </g>
    </g>
    <g id="xtick_26">
     <g id="line2d_26">
      <g>
       <use style="stroke:#000000;stroke-width:0.4;" x="159.230575" xlink:href="#mf048599fe7" y="251.428"/>
      </g>
     </g>
    </g>
    <g id="xtick_27">
     <g id="line2d_27">
      <g>
       <use style="stroke:#000000;stroke-width:0.4;" x="161.451253" xlink:href="#mf048599fe7" y="251.428"/>
      </g>
     </g>
    </g>
    <g id="xtick_28">
     <g id="line2d_28">
      <g>
       <use style="stroke:#000000;stroke-width:0.4;" x="163.410031" xlink:href="#mf048599fe7" y="251.428"/>
      </g>
     </g>
    </g>
    <g id="xtick_29">
     <g id="line2d_29">
      <g>
       <use style="stroke:#000000;stroke-width:0.4;" x="176.689521" xlink:href="#mf048599fe7" y="251.428"/>
      </g>
     </g>
    </g>
    <g id="xtick_30">
     <g id="line2d_30">
      <g>
       <use style="stroke:#000000;stroke-width:0.4;" x="183.432562" xlink:href="#mf048599fe7" y="251.428"/>
      </g>
     </g>
    </g>
    <g id="xtick_31">
     <g id="line2d_31">
      <g>
       <use style="stroke:#000000;stroke-width:0.4;" x="188.216825" xlink:href="#mf048599fe7" y="251.428"/>
      </g>
     </g>
    </g>
    <g id="xtick_32">
     <g id="line2d_32">
      <g>
       <use style="stroke:#000000;stroke-width:0.4;" x="191.927788" xlink:href="#mf048599fe7" y="251.428"/>
      </g>
     </g>
    </g>
    <g id="xtick_33">
     <g id="line2d_33">
      <g>
       <use style="stroke:#000000;stroke-width:0.4;" x="194.959866" xlink:href="#mf048599fe7" y="251.428"/>
      </g>
     </g>
    </g>
    <g id="xtick_34">
     <g id="line2d_34">
      <g>
       <use style="stroke:#000000;stroke-width:0.4;" x="197.523451" xlink:href="#mf048599fe7" y="251.428"/>
      </g>
     </g>
    </g>
    <g id="xtick_35">
     <g id="line2d_35">
      <g>
       <use style="stroke:#000000;stroke-width:0.4;" x="199.744129" xlink:href="#mf048599fe7" y="251.428"/>
      </g>
     </g>
    </g>
    <g id="xtick_36">
     <g id="line2d_36">
      <g>
       <use style="stroke:#000000;stroke-width:0.4;" x="201.702906" xlink:href="#mf048599fe7" y="251.428"/>
      </g>
     </g>
    </g>
    <g id="xtick_37">
     <g id="line2d_37">
      <g>
       <use style="stroke:#000000;stroke-width:0.4;" x="214.982397" xlink:href="#mf048599fe7" y="251.428"/>
      </g>
     </g>
    </g>
    <g id="xtick_38">
     <g id="line2d_38">
      <g>
       <use style="stroke:#000000;stroke-width:0.4;" x="221.725437" xlink:href="#mf048599fe7" y="251.428"/>
      </g>
     </g>
    </g>
    <g id="xtick_39">
     <g id="line2d_39">
      <g>
       <use style="stroke:#000000;stroke-width:0.4;" x="226.509701" xlink:href="#mf048599fe7" y="251.428"/>
      </g>
     </g>
    </g>
    <g id="xtick_40">
     <g id="line2d_40">
      <g>
       <use style="stroke:#000000;stroke-width:0.4;" x="230.220664" xlink:href="#mf048599fe7" y="251.428"/>
      </g>
     </g>
    </g>
    <g id="xtick_41">
     <g id="line2d_41">
      <g>
       <use style="stroke:#000000;stroke-width:0.4;" x="233.252742" xlink:href="#mf048599fe7" y="251.428"/>
      </g>
     </g>
    </g>
    <g id="xtick_42">
     <g id="line2d_42">
      <g>
       <use style="stroke:#000000;stroke-width:0.4;" x="235.816327" xlink:href="#mf048599fe7" y="251.428"/>
      </g>
     </g>
    </g>
    <g id="text_5">
     <!-- $\tau$ -->
     <defs>
      <path d="M 32.859375 9.96875 
Q 34.1875 7.625 39.453125 7.625 
L 43.75 7.625 
L 42.28125 0 
L 36.921875 0 
Q 28.125 0 25 4.6875 
Q 21.921875 9.46875 23.96875 19.828125 
L 29 45.703125 
L 8.453125 45.703125 
L 10.203125 54.6875 
L 60.640625 54.6875 
L 58.890625 45.703125 
L 38.1875 45.703125 
L 33.015625 19.28125 
Q 31.640625 12.203125 32.859375 9.96875 
z
" id="DejaVuSans-Oblique-964"/>
     </defs>
     <g transform="translate(142.088577 281.804562)scale(0.1 -0.1)">
      <use transform="translate(0 0.3125)" xlink:href="#DejaVuSans-Oblique-964"/>
     </g>
    </g>
   </g>
   <g id="matplotlib.axis_2">
    <g id="ytick_1">
     <g id="line2d_43">
      <defs>
       <path d="M 0 0 
L -3.5 0 
" id="m349093d3bf" style="stroke:#000000;stroke-width:0.8;"/>
      </defs>
      <g>
       <use style="stroke:#000000;stroke-width:0.8;" x="53.478125" xlink:href="#m349093d3bf" y="251.428"/>
      </g>
     </g>
     <g id="text_6">
      <!-- $\mathdefault{10^{-2}}$ -->
      <defs>
       <path d="M 10.59375 35.5 
L 73.1875 35.5 
L 73.1875 27.203125 
L 10.59375 27.203125 
z
" id="DejaVuSans-8722"/>
      </defs>
      <g transform="translate(20.878125 255.227219)scale(0.1 -0.1)">
       <use transform="translate(0 0.765625)" xlink:href="#DejaVuSans-49"/>
       <use transform="translate(63.623047 0.765625)" xlink:href="#DejaVuSans-48"/>
       <use transform="translate(128.203125 39.046875)scale(0.7)" xlink:href="#DejaVuSans-8722"/>
       <use transform="translate(186.855469 39.046875)scale(0.7)" xlink:href="#DejaVuSans-50"/>
      </g>
     </g>
    </g>
    <g id="ytick_2">
     <g id="line2d_44">
      <g>
       <use style="stroke:#000000;stroke-width:0.8;" x="53.478125" xlink:href="#m349093d3bf" y="222.601995"/>
      </g>
     </g>
     <g id="text_7">
      <!-- $\mathdefault{10^{-1}}$ -->
      <g transform="translate(20.878125 226.401214)scale(0.1 -0.1)">
       <use transform="translate(0 0.684375)" xlink:href="#DejaVuSans-49"/>
       <use transform="translate(63.623047 0.684375)" xlink:href="#DejaVuSans-48"/>
       <use transform="translate(128.203125 38.965625)scale(0.7)" xlink:href="#DejaVuSans-8722"/>
       <use transform="translate(186.855469 38.965625)scale(0.7)" xlink:href="#DejaVuSans-49"/>
      </g>
     </g>
    </g>
    <g id="ytick_3">
     <g id="line2d_45">
      <g>
       <use style="stroke:#000000;stroke-width:0.8;" x="53.478125" xlink:href="#m349093d3bf" y="193.77599"/>
      </g>
     </g>
     <g id="text_8">
      <!-- $\mathdefault{10^{0}}$ -->
      <g transform="translate(26.778125 197.575208)scale(0.1 -0.1)">
       <use transform="translate(0 0.765625)" xlink:href="#DejaVuSans-49"/>
       <use transform="translate(63.623047 0.765625)" xlink:href="#DejaVuSans-48"/>
       <use transform="translate(128.203125 39.046875)scale(0.7)" xlink:href="#DejaVuSans-48"/>
      </g>
     </g>
    </g>
    <g id="ytick_4">
     <g id="line2d_46">
      <g>
       <use style="stroke:#000000;stroke-width:0.8;" x="53.478125" xlink:href="#m349093d3bf" y="164.949984"/>
      </g>
     </g>
     <g id="text_9">
      <!-- $\mathdefault{10^{1}}$ -->
      <g transform="translate(26.778125 168.749203)scale(0.1 -0.1)">
       <use transform="translate(0 0.684375)" xlink:href="#DejaVuSans-49"/>
       <use transform="translate(63.623047 0.684375)" xlink:href="#DejaVuSans-48"/>
       <use transform="translate(128.203125 38.965625)scale(0.7)" xlink:href="#DejaVuSans-49"/>
      </g>
     </g>
    </g>
    <g id="ytick_5">
     <g id="line2d_47">
      <g>
       <use style="stroke:#000000;stroke-width:0.8;" x="53.478125" xlink:href="#m349093d3bf" y="136.123979"/>
      </g>
     </g>
     <g id="text_10">
      <!-- $\mathdefault{10^{2}}$ -->
      <g transform="translate(26.778125 139.923198)scale(0.1 -0.1)">
       <use transform="translate(0 0.765625)" xlink:href="#DejaVuSans-49"/>
       <use transform="translate(63.623047 0.765625)" xlink:href="#DejaVuSans-48"/>
       <use transform="translate(128.203125 39.046875)scale(0.7)" xlink:href="#DejaVuSans-50"/>
      </g>
     </g>
    </g>
    <g id="ytick_6">
     <g id="line2d_48">
      <g>
       <use style="stroke:#000000;stroke-width:0.8;" x="53.478125" xlink:href="#m349093d3bf" y="107.297974"/>
      </g>
     </g>
     <g id="text_11">
      <!-- $\mathdefault{10^{3}}$ -->
      <g transform="translate(26.778125 111.097193)scale(0.1 -0.1)">
       <use transform="translate(0 0.765625)" xlink:href="#DejaVuSans-49"/>
       <use transform="translate(63.623047 0.765625)" xlink:href="#DejaVuSans-48"/>
       <use transform="translate(128.203125 39.046875)scale(0.7)" xlink:href="#DejaVuSans-51"/>
      </g>
     </g>
    </g>
    <g id="ytick_7">
     <g id="line2d_49">
      <g>
       <use style="stroke:#000000;stroke-width:0.8;" x="53.478125" xlink:href="#m349093d3bf" y="78.471969"/>
      </g>
     </g>
     <g id="text_12">
      <!-- $\mathdefault{10^{4}}$ -->
      <g transform="translate(26.778125 82.271188)scale(0.1 -0.1)">
       <use transform="translate(0 0.684375)" xlink:href="#DejaVuSans-49"/>
       <use transform="translate(63.623047 0.684375)" xlink:href="#DejaVuSans-48"/>
       <use transform="translate(128.203125 38.965625)scale(0.7)" xlink:href="#DejaVuSans-52"/>
      </g>
     </g>
    </g>
    <g id="ytick_8">
     <g id="line2d_50">
      <g>
       <use style="stroke:#000000;stroke-width:0.8;" x="53.478125" xlink:href="#m349093d3bf" y="49.645964"/>
      </g>
     </g>
     <g id="text_13">
      <!-- $\mathdefault{10^{5}}$ -->
      <g transform="translate(26.778125 53.445182)scale(0.1 -0.1)">
       <use transform="translate(0 0.684375)" xlink:href="#DejaVuSans-49"/>
       <use transform="translate(63.623047 0.684375)" xlink:href="#DejaVuSans-48"/>
       <use transform="translate(128.203125 38.965625)scale(0.7)" xlink:href="#DejaVuSans-53"/>
      </g>
     </g>
    </g>
    <g id="ytick_9">
     <g id="line2d_51">
      <g>
       <use style="stroke:#000000;stroke-width:0.8;" x="53.478125" xlink:href="#m349093d3bf" y="20.819958"/>
      </g>
     </g>
     <g id="text_14">
      <!-- $\mathdefault{10^{6}}$ -->
      <defs>
       <path d="M 33.015625 40.375 
Q 26.375 40.375 22.484375 35.828125 
Q 18.609375 31.296875 18.609375 23.390625 
Q 18.609375 15.53125 22.484375 10.953125 
Q 26.375 6.390625 33.015625 6.390625 
Q 39.65625 6.390625 43.53125 10.953125 
Q 47.40625 15.53125 47.40625 23.390625 
Q 47.40625 31.296875 43.53125 35.828125 
Q 39.65625 40.375 33.015625 40.375 
z
M 52.59375 71.296875 
L 52.59375 62.3125 
Q 48.875 64.0625 45.09375 64.984375 
Q 41.3125 65.921875 37.59375 65.921875 
Q 27.828125 65.921875 22.671875 59.328125 
Q 17.53125 52.734375 16.796875 39.40625 
Q 19.671875 43.65625 24.015625 45.921875 
Q 28.375 48.1875 33.59375 48.1875 
Q 44.578125 48.1875 50.953125 41.515625 
Q 57.328125 34.859375 57.328125 23.390625 
Q 57.328125 12.15625 50.6875 5.359375 
Q 44.046875 -1.421875 33.015625 -1.421875 
Q 20.359375 -1.421875 13.671875 8.265625 
Q 6.984375 17.96875 6.984375 36.375 
Q 6.984375 53.65625 15.1875 63.9375 
Q 23.390625 74.21875 37.203125 74.21875 
Q 40.921875 74.21875 44.703125 73.484375 
Q 48.484375 72.75 52.59375 71.296875 
z
" id="DejaVuSans-54"/>
      </defs>
      <g transform="translate(26.778125 24.619177)scale(0.1 -0.1)">
       <use transform="translate(0 0.765625)" xlink:href="#DejaVuSans-49"/>
       <use transform="translate(63.623047 0.765625)" xlink:href="#DejaVuSans-48"/>
       <use transform="translate(128.203125 39.046875)scale(0.7)" xlink:href="#DejaVuSans-54"/>
      </g>
     </g>
    </g>
    <g id="ytick_10">
     <g id="line2d_52">
      <defs>
       <path d="M 0 0 
L -2 0 
" id="m3c323b5649" style="stroke:#000000;stroke-width:0.4;"/>
      </defs>
      <g>
       <use style="stroke:#000000;stroke-width:0.4;" x="53.478125" xlink:href="#m3c323b5649" y="242.750508"/>
      </g>
     </g>
    </g>
    <g id="ytick_11">
     <g id="line2d_53">
      <g>
       <use style="stroke:#000000;stroke-width:0.4;" x="53.478125" xlink:href="#m3c323b5649" y="237.6745"/>
      </g>
     </g>
    </g>
    <g id="ytick_12">
     <g id="line2d_54">
      <g>
       <use style="stroke:#000000;stroke-width:0.4;" x="53.478125" xlink:href="#m3c323b5649" y="234.073016"/>
      </g>
     </g>
    </g>
    <g id="ytick_13">
     <g id="line2d_55">
      <g>
       <use style="stroke:#000000;stroke-width:0.4;" x="53.478125" xlink:href="#m3c323b5649" y="231.279487"/>
      </g>
     </g>
    </g>
    <g id="ytick_14">
     <g id="line2d_56">
      <g>
       <use style="stroke:#000000;stroke-width:0.4;" x="53.478125" xlink:href="#m3c323b5649" y="228.997008"/>
      </g>
     </g>
    </g>
    <g id="ytick_15">
     <g id="line2d_57">
      <g>
       <use style="stroke:#000000;stroke-width:0.4;" x="53.478125" xlink:href="#m3c323b5649" y="227.067199"/>
      </g>
     </g>
    </g>
    <g id="ytick_16">
     <g id="line2d_58">
      <g>
       <use style="stroke:#000000;stroke-width:0.4;" x="53.478125" xlink:href="#m3c323b5649" y="225.395523"/>
      </g>
     </g>
    </g>
    <g id="ytick_17">
     <g id="line2d_59">
      <g>
       <use style="stroke:#000000;stroke-width:0.4;" x="53.478125" xlink:href="#m3c323b5649" y="223.921"/>
      </g>
     </g>
    </g>
    <g id="ytick_18">
     <g id="line2d_60">
      <g>
       <use style="stroke:#000000;stroke-width:0.4;" x="53.478125" xlink:href="#m3c323b5649" y="213.924503"/>
      </g>
     </g>
    </g>
    <g id="ytick_19">
     <g id="line2d_61">
      <g>
       <use style="stroke:#000000;stroke-width:0.4;" x="53.478125" xlink:href="#m3c323b5649" y="208.848495"/>
      </g>
     </g>
    </g>
    <g id="ytick_20">
     <g id="line2d_62">
      <g>
       <use style="stroke:#000000;stroke-width:0.4;" x="53.478125" xlink:href="#m3c323b5649" y="205.24701"/>
      </g>
     </g>
    </g>
    <g id="ytick_21">
     <g id="line2d_63">
      <g>
       <use style="stroke:#000000;stroke-width:0.4;" x="53.478125" xlink:href="#m3c323b5649" y="202.453482"/>
      </g>
     </g>
    </g>
    <g id="ytick_22">
     <g id="line2d_64">
      <g>
       <use style="stroke:#000000;stroke-width:0.4;" x="53.478125" xlink:href="#m3c323b5649" y="200.171003"/>
      </g>
     </g>
    </g>
    <g id="ytick_23">
     <g id="line2d_65">
      <g>
       <use style="stroke:#000000;stroke-width:0.4;" x="53.478125" xlink:href="#m3c323b5649" y="198.241194"/>
      </g>
     </g>
    </g>
    <g id="ytick_24">
     <g id="line2d_66">
      <g>
       <use style="stroke:#000000;stroke-width:0.4;" x="53.478125" xlink:href="#m3c323b5649" y="196.569518"/>
      </g>
     </g>
    </g>
    <g id="ytick_25">
     <g id="line2d_67">
      <g>
       <use style="stroke:#000000;stroke-width:0.4;" x="53.478125" xlink:href="#m3c323b5649" y="195.094995"/>
      </g>
     </g>
    </g>
    <g id="ytick_26">
     <g id="line2d_68">
      <g>
       <use style="stroke:#000000;stroke-width:0.4;" x="53.478125" xlink:href="#m3c323b5649" y="185.098497"/>
      </g>
     </g>
    </g>
    <g id="ytick_27">
     <g id="line2d_69">
      <g>
       <use style="stroke:#000000;stroke-width:0.4;" x="53.478125" xlink:href="#m3c323b5649" y="180.02249"/>
      </g>
     </g>
    </g>
    <g id="ytick_28">
     <g id="line2d_70">
      <g>
       <use style="stroke:#000000;stroke-width:0.4;" x="53.478125" xlink:href="#m3c323b5649" y="176.421005"/>
      </g>
     </g>
    </g>
    <g id="ytick_29">
     <g id="line2d_71">
      <g>
       <use style="stroke:#000000;stroke-width:0.4;" x="53.478125" xlink:href="#m3c323b5649" y="173.627477"/>
      </g>
     </g>
    </g>
    <g id="ytick_30">
     <g id="line2d_72">
      <g>
       <use style="stroke:#000000;stroke-width:0.4;" x="53.478125" xlink:href="#m3c323b5649" y="171.344998"/>
      </g>
     </g>
    </g>
    <g id="ytick_31">
     <g id="line2d_73">
      <g>
       <use style="stroke:#000000;stroke-width:0.4;" x="53.478125" xlink:href="#m3c323b5649" y="169.415189"/>
      </g>
     </g>
    </g>
    <g id="ytick_32">
     <g id="line2d_74">
      <g>
       <use style="stroke:#000000;stroke-width:0.4;" x="53.478125" xlink:href="#m3c323b5649" y="167.743513"/>
      </g>
     </g>
    </g>
    <g id="ytick_33">
     <g id="line2d_75">
      <g>
       <use style="stroke:#000000;stroke-width:0.4;" x="53.478125" xlink:href="#m3c323b5649" y="166.26899"/>
      </g>
     </g>
    </g>
    <g id="ytick_34">
     <g id="line2d_76">
      <g>
       <use style="stroke:#000000;stroke-width:0.4;" x="53.478125" xlink:href="#m3c323b5649" y="156.272492"/>
      </g>
     </g>
    </g>
    <g id="ytick_35">
     <g id="line2d_77">
      <g>
       <use style="stroke:#000000;stroke-width:0.4;" x="53.478125" xlink:href="#m3c323b5649" y="151.196485"/>
      </g>
     </g>
    </g>
    <g id="ytick_36">
     <g id="line2d_78">
      <g>
       <use style="stroke:#000000;stroke-width:0.4;" x="53.478125" xlink:href="#m3c323b5649" y="147.595"/>
      </g>
     </g>
    </g>
    <g id="ytick_37">
     <g id="line2d_79">
      <g>
       <use style="stroke:#000000;stroke-width:0.4;" x="53.478125" xlink:href="#m3c323b5649" y="144.801471"/>
      </g>
     </g>
    </g>
    <g id="ytick_38">
     <g id="line2d_80">
      <g>
       <use style="stroke:#000000;stroke-width:0.4;" x="53.478125" xlink:href="#m3c323b5649" y="142.518992"/>
      </g>
     </g>
    </g>
    <g id="ytick_39">
     <g id="line2d_81">
      <g>
       <use style="stroke:#000000;stroke-width:0.4;" x="53.478125" xlink:href="#m3c323b5649" y="140.589184"/>
      </g>
     </g>
    </g>
    <g id="ytick_40">
     <g id="line2d_82">
      <g>
       <use style="stroke:#000000;stroke-width:0.4;" x="53.478125" xlink:href="#m3c323b5649" y="138.917508"/>
      </g>
     </g>
    </g>
    <g id="ytick_41">
     <g id="line2d_83">
      <g>
       <use style="stroke:#000000;stroke-width:0.4;" x="53.478125" xlink:href="#m3c323b5649" y="137.442985"/>
      </g>
     </g>
    </g>
    <g id="ytick_42">
     <g id="line2d_84">
      <g>
       <use style="stroke:#000000;stroke-width:0.4;" x="53.478125" xlink:href="#m3c323b5649" y="127.446487"/>
      </g>
     </g>
    </g>
    <g id="ytick_43">
     <g id="line2d_85">
      <g>
       <use style="stroke:#000000;stroke-width:0.4;" x="53.478125" xlink:href="#m3c323b5649" y="122.370479"/>
      </g>
     </g>
    </g>
    <g id="ytick_44">
     <g id="line2d_86">
      <g>
       <use style="stroke:#000000;stroke-width:0.4;" x="53.478125" xlink:href="#m3c323b5649" y="118.768995"/>
      </g>
     </g>
    </g>
    <g id="ytick_45">
     <g id="line2d_87">
      <g>
       <use style="stroke:#000000;stroke-width:0.4;" x="53.478125" xlink:href="#m3c323b5649" y="115.975466"/>
      </g>
     </g>
    </g>
    <g id="ytick_46">
     <g id="line2d_88">
      <g>
       <use style="stroke:#000000;stroke-width:0.4;" x="53.478125" xlink:href="#m3c323b5649" y="113.692987"/>
      </g>
     </g>
    </g>
    <g id="ytick_47">
     <g id="line2d_89">
      <g>
       <use style="stroke:#000000;stroke-width:0.4;" x="53.478125" xlink:href="#m3c323b5649" y="111.763179"/>
      </g>
     </g>
    </g>
    <g id="ytick_48">
     <g id="line2d_90">
      <g>
       <use style="stroke:#000000;stroke-width:0.4;" x="53.478125" xlink:href="#m3c323b5649" y="110.091502"/>
      </g>
     </g>
    </g>
    <g id="ytick_49">
     <g id="line2d_91">
      <g>
       <use style="stroke:#000000;stroke-width:0.4;" x="53.478125" xlink:href="#m3c323b5649" y="108.61698"/>
      </g>
     </g>
    </g>
    <g id="ytick_50">
     <g id="line2d_92">
      <g>
       <use style="stroke:#000000;stroke-width:0.4;" x="53.478125" xlink:href="#m3c323b5649" y="98.620482"/>
      </g>
     </g>
    </g>
    <g id="ytick_51">
     <g id="line2d_93">
      <g>
       <use style="stroke:#000000;stroke-width:0.4;" x="53.478125" xlink:href="#m3c323b5649" y="93.544474"/>
      </g>
     </g>
    </g>
    <g id="ytick_52">
     <g id="line2d_94">
      <g>
       <use style="stroke:#000000;stroke-width:0.4;" x="53.478125" xlink:href="#m3c323b5649" y="89.94299"/>
      </g>
     </g>
    </g>
    <g id="ytick_53">
     <g id="line2d_95">
      <g>
       <use style="stroke:#000000;stroke-width:0.4;" x="53.478125" xlink:href="#m3c323b5649" y="87.149461"/>
      </g>
     </g>
    </g>
    <g id="ytick_54">
     <g id="line2d_96">
      <g>
       <use style="stroke:#000000;stroke-width:0.4;" x="53.478125" xlink:href="#m3c323b5649" y="84.866982"/>
      </g>
     </g>
    </g>
    <g id="ytick_55">
     <g id="line2d_97">
      <g>
       <use style="stroke:#000000;stroke-width:0.4;" x="53.478125" xlink:href="#m3c323b5649" y="82.937173"/>
      </g>
     </g>
    </g>
    <g id="ytick_56">
     <g id="line2d_98">
      <g>
       <use style="stroke:#000000;stroke-width:0.4;" x="53.478125" xlink:href="#m3c323b5649" y="81.265497"/>
      </g>
     </g>
    </g>
    <g id="ytick_57">
     <g id="line2d_99">
      <g>
       <use style="stroke:#000000;stroke-width:0.4;" x="53.478125" xlink:href="#m3c323b5649" y="79.790974"/>
      </g>
     </g>
    </g>
    <g id="ytick_58">
     <g id="line2d_100">
      <g>
       <use style="stroke:#000000;stroke-width:0.4;" x="53.478125" xlink:href="#m3c323b5649" y="69.794477"/>
      </g>
     </g>
    </g>
    <g id="ytick_59">
     <g id="line2d_101">
      <g>
       <use style="stroke:#000000;stroke-width:0.4;" x="53.478125" xlink:href="#m3c323b5649" y="64.718469"/>
      </g>
     </g>
    </g>
    <g id="ytick_60">
     <g id="line2d_102">
      <g>
       <use style="stroke:#000000;stroke-width:0.4;" x="53.478125" xlink:href="#m3c323b5649" y="61.116984"/>
      </g>
     </g>
    </g>
    <g id="ytick_61">
     <g id="line2d_103">
      <g>
       <use style="stroke:#000000;stroke-width:0.4;" x="53.478125" xlink:href="#m3c323b5649" y="58.323456"/>
      </g>
     </g>
    </g>
    <g id="ytick_62">
     <g id="line2d_104">
      <g>
       <use style="stroke:#000000;stroke-width:0.4;" x="53.478125" xlink:href="#m3c323b5649" y="56.040977"/>
      </g>
     </g>
    </g>
    <g id="ytick_63">
     <g id="line2d_105">
      <g>
       <use style="stroke:#000000;stroke-width:0.4;" x="53.478125" xlink:href="#m3c323b5649" y="54.111168"/>
      </g>
     </g>
    </g>
    <g id="ytick_64">
     <g id="line2d_106">
      <g>
       <use style="stroke:#000000;stroke-width:0.4;" x="53.478125" xlink:href="#m3c323b5649" y="52.439492"/>
      </g>
     </g>
    </g>
    <g id="ytick_65">
     <g id="line2d_107">
      <g>
       <use style="stroke:#000000;stroke-width:0.4;" x="53.478125" xlink:href="#m3c323b5649" y="50.964969"/>
      </g>
     </g>
    </g>
    <g id="ytick_66">
     <g id="line2d_108">
      <g>
       <use style="stroke:#000000;stroke-width:0.4;" x="53.478125" xlink:href="#m3c323b5649" y="40.968471"/>
      </g>
     </g>
    </g>
    <g id="ytick_67">
     <g id="line2d_109">
      <g>
       <use style="stroke:#000000;stroke-width:0.4;" x="53.478125" xlink:href="#m3c323b5649" y="35.892464"/>
      </g>
     </g>
    </g>
    <g id="ytick_68">
     <g id="line2d_110">
      <g>
       <use style="stroke:#000000;stroke-width:0.4;" x="53.478125" xlink:href="#m3c323b5649" y="32.290979"/>
      </g>
     </g>
    </g>
    <g id="ytick_69">
     <g id="line2d_111">
      <g>
       <use style="stroke:#000000;stroke-width:0.4;" x="53.478125" xlink:href="#m3c323b5649" y="29.497451"/>
      </g>
     </g>
    </g>
    <g id="ytick_70">
     <g id="line2d_112">
      <g>
       <use style="stroke:#000000;stroke-width:0.4;" x="53.478125" xlink:href="#m3c323b5649" y="27.214972"/>
      </g>
     </g>
    </g>
    <g id="ytick_71">
     <g id="line2d_113">
      <g>
       <use style="stroke:#000000;stroke-width:0.4;" x="53.478125" xlink:href="#m3c323b5649" y="25.285163"/>
      </g>
     </g>
    </g>
    <g id="ytick_72">
     <g id="line2d_114">
      <g>
       <use style="stroke:#000000;stroke-width:0.4;" x="53.478125" xlink:href="#m3c323b5649" y="23.613487"/>
      </g>
     </g>
    </g>
    <g id="ytick_73">
     <g id="line2d_115">
      <g>
       <use style="stroke:#000000;stroke-width:0.4;" x="53.478125" xlink:href="#m3c323b5649" y="22.138964"/>
      </g>
     </g>
    </g>
    <g id="ytick_74">
     <g id="line2d_116">
      <g>
       <use style="stroke:#000000;stroke-width:0.4;" x="53.478125" xlink:href="#m3c323b5649" y="12.142466"/>
      </g>
     </g>
    </g>
    <g id="text_15">
     <!-- MSD -->
     <defs>
      <path d="M 9.8125 72.90625 
L 24.515625 72.90625 
L 43.109375 23.296875 
L 61.8125 72.90625 
L 76.515625 72.90625 
L 76.515625 0 
L 66.890625 0 
L 66.890625 64.015625 
L 48.09375 14.015625 
L 38.1875 14.015625 
L 19.390625 64.015625 
L 19.390625 0 
L 9.8125 0 
z
" id="DejaVuSans-77"/>
      <path d="M 53.515625 70.515625 
L 53.515625 60.890625 
Q 47.90625 63.578125 42.921875 64.890625 
Q 37.9375 66.21875 33.296875 66.21875 
Q 25.25 66.21875 20.875 63.09375 
Q 16.5 59.96875 16.5 54.203125 
Q 16.5 49.359375 19.40625 46.890625 
Q 22.3125 44.4375 30.421875 42.921875 
L 36.375 41.703125 
Q 47.40625 39.59375 52.65625 34.296875 
Q 57.90625 29 57.90625 20.125 
Q 57.90625 9.515625 50.796875 4.046875 
Q 43.703125 -1.421875 29.984375 -1.421875 
Q 24.8125 -1.421875 18.96875 -0.25 
Q 13.140625 0.921875 6.890625 3.21875 
L 6.890625 13.375 
Q 12.890625 10.015625 18.65625 8.296875 
Q 24.421875 6.59375 29.984375 6.59375 
Q 38.421875 6.59375 43.015625 9.90625 
Q 47.609375 13.234375 47.609375 19.390625 
Q 47.609375 24.75 44.3125 27.78125 
Q 41.015625 30.8125 33.5 32.328125 
L 27.484375 33.5 
Q 16.453125 35.6875 11.515625 40.375 
Q 6.59375 45.0625 6.59375 53.421875 
Q 6.59375 63.09375 13.40625 68.65625 
Q 20.21875 74.21875 32.171875 74.21875 
Q 37.3125 74.21875 42.625 73.28125 
Q 47.953125 72.359375 53.515625 70.515625 
z
" id="DejaVuSans-83"/>
      <path d="M 19.671875 64.796875 
L 19.671875 8.109375 
L 31.59375 8.109375 
Q 46.6875 8.109375 53.6875 14.9375 
Q 60.6875 21.78125 60.6875 36.53125 
Q 60.6875 51.171875 53.6875 57.984375 
Q 46.6875 64.796875 31.59375 64.796875 
z
M 9.8125 72.90625 
L 30.078125 72.90625 
Q 51.265625 72.90625 61.171875 64.09375 
Q 71.09375 55.28125 71.09375 36.53125 
Q 71.09375 17.671875 61.125 8.828125 
Q 51.171875 0 30.078125 0 
L 9.8125 0 
z
" id="DejaVuSans-68"/>
     </defs>
     <g transform="translate(14.798438 140.652281)rotate(-90)scale(0.1 -0.1)">
      <use xlink:href="#DejaVuSans-77"/>
      <use x="86.279297" xlink:href="#DejaVuSans-83"/>
      <use x="149.755859" xlink:href="#DejaVuSans-68"/>
     </g>
    </g>
   </g>
   <g id="line2d_117">
    <path clip-path="url(#p2949bfc655)" d="M -1 229.167208 
L 61.810893 229.091044 
L 73.338198 215.439778 
L 80.081238 206.815846 
L 88.576465 195.423781 
L 104.466988 173.58714 
L 119.959159 152.01249 
L 142.240122 120.335664 
L 148.446652 112.045762 
L 153.898892 105.120653 
L 158.894596 99.127392 
L 163.630304 93.791931 
L 168.359772 88.797496 
L 173.020082 84.194747 
L 178.410079 79.200609 
L 184.743222 73.628611 
L 191.780793 67.796635 
L 197.913225 62.905378 
L 204.282322 57.790253 
L 212.960095 50.42408 
L 217.017866 47.41557 
L 220.764694 44.444121 
L 222.141492 43.33422 
L 224.663008 41.246506 
L 227.629449 39.274508 
L 228.10457 39.045116 
L 228.466261 38.859063 
L 228.466261 38.859063 
" style="fill:none;stroke:#1f77b4;stroke-dasharray:5.18,2.24;stroke-dashoffset:0;stroke-width:1.4;"/>
   </g>
   <g id="line2d_118">
    <path clip-path="url(#p2949bfc655)" d="M -1 229.21701 
L 61.810893 229.118403 
L 73.338198 215.378394 
L 84.865502 200.436765 
L 94.172128 187.72998 
L 119.959159 152.158309 
L 142.107608 122.613975 
L 147.798031 115.586686 
L 152.605901 110.01439 
L 157.212297 104.994056 
L 161.82129 100.293681 
L 166.656302 95.680337 
L 172.93693 90.024259 
L 179.804543 84.12534 
L 188.537996 76.936309 
L 196.943262 70.244351 
L 204.395862 64.082368 
L 213.130128 57.509844 
L 215.241465 56.210991 
L 216.771793 55.440124 
L 219.254539 54.244999 
L 220.854895 53.540124 
L 223.035073 52.704839 
L 224.259537 52.177556 
L 225.509855 51.376605 
L 226.378637 50.866683 
L 226.930081 50.467564 
L 228.465521 49.080105 
L 228.466261 49.081913 
" style="fill:none;stroke:#ff7f0e;stroke-dasharray:5.18,2.24;stroke-dashoffset:0;stroke-width:1.4;"/>
   </g>
   <g id="line2d_119">
    <path clip-path="url(#p2949bfc655)" d="M -1 229.350466 
L 61.810893 229.245668 
L 73.338198 215.391336 
L 80.081238 206.763381 
L 88.576465 195.385341 
L 100.103769 179.402855 
L 115.342037 158.207088 
L 122.30535 148.94853 
L 128.149232 141.551828 
L 134.476492 133.920166 
L 142.371588 124.741382 
L 146.316603 120.473779 
L 149.502904 117.351051 
L 152.746837 114.497591 
L 158.049223 110.18257 
L 174.900337 96.889133 
L 182.579534 91.003056 
L 194.153455 81.676667 
L 199.773207 77.25419 
L 206.114383 72.407552 
L 223.871389 57.134008 
L 227.052057 55.428409 
L 227.374864 55.180601 
L 227.900094 54.610076 
L 228.466261 54.470045 
L 228.466261 54.470045 
" style="fill:none;stroke:#2ca02c;stroke-dasharray:5.18,2.24;stroke-dashoffset:0;stroke-width:1.4;"/>
   </g>
   <g id="line2d_120">
    <path clip-path="url(#p2949bfc655)" d="M -1 276.405338 
L 61.810893 229.242263 
L 73.338198 215.391477 
L 80.081238 206.777909 
L 88.576465 195.380459 
L 98.351583 181.824737 
L 114.663151 159.044565 
L 120.937699 150.657773 
L 126.190455 144.021021 
L 130.712818 138.671616 
L 135.497081 133.379823 
L 155.93026 111.638086 
L 160.019332 107.671735 
L 164.133205 104.013468 
L 175.212224 94.46238 
L 185.833804 85.803701 
L 194.35013 79.3358 
L 207.968583 69.168711 
L 215.459433 63.318799 
L 221.044242 58.907878 
L 222.802895 57.528017 
L 225.643539 55.454776 
L 226.238083 55.109647 
L 228.389945 53.866049 
L 228.445549 53.815642 
L 228.466261 53.833545 
" style="fill:none;stroke:#d62728;stroke-dasharray:5.18,2.24;stroke-dashoffset:0;stroke-width:1.4;"/>
   </g>
   <g id="line2d_121">
    <path clip-path="url(#p2949bfc655)" d="M -1 229.013181 
L 61.810893 228.945577 
L 73.338198 215.217454 
L 80.081238 206.667973 
L 88.576465 195.348012 
L 98.351583 181.787127 
L 117.226736 155.510466 
L 122.737333 148.286485 
L 127.521596 142.387975 
L 131.736549 137.545309 
L 136.270727 132.686511 
L 145.469011 122.961286 
L 149.070922 118.682463 
L 156.996315 109.15157 
L 162.341657 103.150286 
L 166.747262 98.545803 
L 171.087205 94.325295 
L 176.148648 89.708136 
L 184.987342 82.08359 
L 192.624758 75.664954 
L 197.002201 72.203344 
L 202.090102 68.314168 
L 207.406448 64.754376 
L 210.711221 62.37986 
L 214.239291 59.797061 
L 220.349611 55.497632 
L 221.79845 54.510648 
L 222.999168 53.676755 
L 223.948194 52.821173 
L 224.931224 52.065271 
L 226.396228 51.163604 
L 227.072166 50.631257 
L 227.595989 49.792497 
L 227.991621 49.218778 
L 228.466261 48.927502 
L 228.466261 48.927502 
" style="fill:none;stroke:#9467bd;stroke-dasharray:5.18,2.24;stroke-dashoffset:0;stroke-width:1.4;"/>
   </g>
   <g id="line2d_122">
    <path clip-path="url(#p2949bfc655)" d="M 165.162217 49.645964 
L 165.943704 49.057678 
L 166.725191 48.469392 
L 167.506678 47.881106 
L 168.288166 47.29282 
L 169.069653 46.704534 
L 169.85114 46.116249 
L 170.632627 45.527963 
L 171.414115 44.939677 
L 172.195602 44.351391 
L 172.977089 43.763105 
L 173.758576 43.17482 
L 174.540064 42.586534 
L 175.321551 41.998248 
L 176.103038 41.409962 
L 176.884525 40.821676 
L 177.666013 40.23339 
L 178.4475 39.645105 
L 179.228987 39.056819 
L 180.010475 38.468533 
L 180.791962 37.880247 
L 181.573449 37.291961 
L 182.354936 36.703675 
L 183.136424 36.11539 
L 183.917911 35.527104 
L 184.699398 34.938818 
L 185.480885 34.350532 
L 186.262373 33.762246 
L 187.04386 33.173961 
L 187.825347 32.585675 
L 188.606834 31.997389 
L 189.388322 31.409103 
L 190.169809 30.820817 
L 190.951296 30.232531 
L 191.732783 29.644246 
L 192.514271 29.05596 
L 193.295758 28.467674 
L 194.077245 27.879388 
L 194.858732 27.291102 
L 195.64022 26.702817 
L 196.421707 26.114531 
L 197.203194 25.526245 
L 197.984682 24.937959 
L 198.766169 24.349673 
L 199.547656 23.761387 
L 200.329143 23.173102 
L 201.110631 22.584816 
L 201.892118 21.99653 
L 202.673605 21.408244 
L 203.455092 20.819958 
" style="fill:none;stroke:#000000;stroke-linecap:square;"/>
   </g>
   <g id="patch_3">
    <path d="M 53.478125 251.428 
L 53.478125 7.2 
" style="fill:none;stroke:#000000;stroke-linecap:square;stroke-linejoin:miter;stroke-width:0.8;"/>
   </g>
   <g id="patch_4">
    <path d="M 236.799029 251.428 
L 236.799029 7.2 
" style="fill:none;stroke:#000000;stroke-linecap:square;stroke-linejoin:miter;stroke-width:0.8;"/>
   </g>
   <g id="patch_5">
    <path d="M 53.478125 251.428 
L 236.799029 251.428 
" style="fill:none;stroke:#000000;stroke-linecap:square;stroke-linejoin:miter;stroke-width:0.8;"/>
   </g>
   <g id="patch_6">
    <path d="M 53.478125 7.2 
L 236.799029 7.2 
" style="fill:none;stroke:#000000;stroke-linecap:square;stroke-linejoin:miter;stroke-width:0.8;"/>
   </g>
   <g id="legend_1">
    <g id="line2d_123">
     <path d="M 132.489029 168.215969 
L 150.489029 168.215969 
" style="fill:none;stroke:#1f77b4;stroke-dasharray:5.18,2.24;stroke-dashoffset:0;stroke-width:1.4;"/>
    </g>
    <g id="line2d_124"/>
    <g id="text_16">
     <!-- $\tau_{\mathrm{a}} = 5.0 \times 10^{3}dt$ -->
     <defs>
      <path d="M 34.28125 27.484375 
Q 23.390625 27.484375 19.1875 25 
Q 14.984375 22.515625 14.984375 16.5 
Q 14.984375 11.71875 18.140625 8.90625 
Q 21.296875 6.109375 26.703125 6.109375 
Q 34.1875 6.109375 38.703125 11.40625 
Q 43.21875 16.703125 43.21875 25.484375 
L 43.21875 27.484375 
z
M 52.203125 31.203125 
L 52.203125 0 
L 43.21875 0 
L 43.21875 8.296875 
Q 40.140625 3.328125 35.546875 0.953125 
Q 30.953125 -1.421875 24.3125 -1.421875 
Q 15.921875 -1.421875 10.953125 3.296875 
Q 6 8.015625 6 15.921875 
Q 6 25.140625 12.171875 29.828125 
Q 18.359375 34.515625 30.609375 34.515625 
L 43.21875 34.515625 
L 43.21875 35.40625 
Q 43.21875 41.609375 39.140625 45 
Q 35.0625 48.390625 27.6875 48.390625 
Q 23 48.390625 18.546875 47.265625 
Q 14.109375 46.140625 10.015625 43.890625 
L 10.015625 52.203125 
Q 14.9375 54.109375 19.578125 55.046875 
Q 24.21875 56 28.609375 56 
Q 40.484375 56 46.34375 49.84375 
Q 52.203125 43.703125 52.203125 31.203125 
z
" id="DejaVuSans-97"/>
      <path d="M 10.59375 45.40625 
L 73.1875 45.40625 
L 73.1875 37.203125 
L 10.59375 37.203125 
z
M 10.59375 25.484375 
L 73.1875 25.484375 
L 73.1875 17.1875 
L 10.59375 17.1875 
z
" id="DejaVuSans-61"/>
      <path d="M 10.6875 12.40625 
L 21 12.40625 
L 21 0 
L 10.6875 0 
z
" id="DejaVuSans-46"/>
      <path d="M 70.125 53.71875 
L 47.796875 31.296875 
L 70.125 8.984375 
L 64.3125 3.078125 
L 41.890625 25.484375 
L 19.484375 3.078125 
L 13.71875 8.984375 
L 35.984375 31.296875 
L 13.71875 53.71875 
L 19.484375 59.625 
L 41.890625 37.203125 
L 64.3125 59.625 
z
" id="DejaVuSans-215"/>
      <path d="M 41.796875 8.203125 
Q 38.1875 3.46875 33.25 1.015625 
Q 28.328125 -1.421875 22.3125 -1.421875 
Q 14.109375 -1.421875 9.34375 4.171875 
Q 4.59375 9.765625 4.59375 19.484375 
Q 4.59375 27.59375 7.46875 34.9375 
Q 10.359375 42.28125 15.828125 48.09375 
Q 19.4375 51.953125 23.96875 53.96875 
Q 28.515625 56 33.5 56 
Q 38.765625 56 42.796875 53.453125 
Q 46.828125 50.921875 49.03125 46.1875 
L 54.890625 75.984375 
L 63.921875 75.984375 
L 49.125 0 
L 40.09375 0 
z
M 13.921875 21.09375 
Q 13.921875 14.015625 17.109375 10.0625 
Q 20.3125 6.109375 25.984375 6.109375 
Q 30.171875 6.109375 33.765625 8.125 
Q 37.359375 10.15625 40.09375 14.109375 
Q 42.96875 18.21875 44.625 23.578125 
Q 46.296875 28.953125 46.296875 34.1875 
Q 46.296875 40.96875 43.09375 44.765625 
Q 39.890625 48.578125 34.28125 48.578125 
Q 30.03125 48.578125 26.359375 46.578125 
Q 22.703125 44.578125 20.125 40.828125 
Q 17.28125 36.765625 15.59375 31.390625 
Q 13.921875 26.03125 13.921875 21.09375 
z
" id="DejaVuSans-Oblique-100"/>
      <path d="M 42.28125 54.6875 
L 40.921875 47.703125 
L 23 47.703125 
L 17.1875 18.015625 
Q 16.890625 16.359375 16.75 15.234375 
Q 16.609375 14.109375 16.609375 13.484375 
Q 16.609375 10.359375 18.484375 8.9375 
Q 20.359375 7.515625 24.515625 7.515625 
L 33.59375 7.515625 
L 32.078125 0 
L 23.484375 0 
Q 15.484375 0 11.546875 3.125 
Q 7.625 6.25 7.625 12.59375 
Q 7.625 13.71875 7.765625 15.0625 
Q 7.90625 16.40625 8.203125 18.015625 
L 14.015625 47.703125 
L 6.390625 47.703125 
L 7.8125 54.6875 
L 15.28125 54.6875 
L 18.3125 70.21875 
L 27.296875 70.21875 
L 24.3125 54.6875 
z
" id="DejaVuSans-Oblique-116"/>
     </defs>
     <g transform="translate(157.689029 171.365969)scale(0.09 -0.09)">
      <use transform="translate(0 0.765625)" xlink:href="#DejaVuSans-Oblique-964"/>
      <use transform="translate(60.205078 -15.640625)scale(0.7)" xlink:href="#DejaVuSans-97"/>
      <use transform="translate(125.317383 0.765625)" xlink:href="#DejaVuSans-61"/>
      <use transform="translate(228.588867 0.765625)" xlink:href="#DejaVuSans-53"/>
      <use transform="translate(292.211914 0.765625)" xlink:href="#DejaVuSans-46"/>
      <use transform="translate(323.999023 0.765625)" xlink:href="#DejaVuSans-48"/>
      <use transform="translate(407.104492 0.765625)" xlink:href="#DejaVuSans-215"/>
      <use transform="translate(510.375977 0.765625)" xlink:href="#DejaVuSans-49"/>
      <use transform="translate(573.999023 0.765625)" xlink:href="#DejaVuSans-48"/>
      <use transform="translate(638.579102 39.046875)scale(0.7)" xlink:href="#DejaVuSans-51"/>
      <use transform="translate(685.849609 0.765625)" xlink:href="#DejaVuSans-Oblique-100"/>
      <use transform="translate(749.326172 0.765625)" xlink:href="#DejaVuSans-Oblique-116"/>
     </g>
    </g>
    <g id="line2d_125">
     <path d="M 132.489029 182.435969 
L 150.489029 182.435969 
" style="fill:none;stroke:#ff7f0e;stroke-dasharray:5.18,2.24;stroke-dashoffset:0;stroke-width:1.4;"/>
    </g>
    <g id="line2d_126"/>
    <g id="text_17">
     <!-- $\tau_{\mathrm{a}} = 1.0 \times 10^{4}dt$ -->
     <g transform="translate(157.689029 185.585969)scale(0.09 -0.09)">
      <use transform="translate(0 0.684375)" xlink:href="#DejaVuSans-Oblique-964"/>
      <use transform="translate(60.205078 -15.721875)scale(0.7)" xlink:href="#DejaVuSans-97"/>
      <use transform="translate(125.317383 0.684375)" xlink:href="#DejaVuSans-61"/>
      <use transform="translate(228.588867 0.684375)" xlink:href="#DejaVuSans-49"/>
      <use transform="translate(292.211914 0.684375)" xlink:href="#DejaVuSans-46"/>
      <use transform="translate(323.999023 0.684375)" xlink:href="#DejaVuSans-48"/>
      <use transform="translate(407.104492 0.684375)" xlink:href="#DejaVuSans-215"/>
      <use transform="translate(510.375977 0.684375)" xlink:href="#DejaVuSans-49"/>
      <use transform="translate(573.999023 0.684375)" xlink:href="#DejaVuSans-48"/>
      <use transform="translate(638.579102 38.965625)scale(0.7)" xlink:href="#DejaVuSans-52"/>
      <use transform="translate(685.849609 0.684375)" xlink:href="#DejaVuSans-Oblique-100"/>
      <use transform="translate(749.326172 0.684375)" xlink:href="#DejaVuSans-Oblique-116"/>
     </g>
    </g>
    <g id="line2d_127">
     <path d="M 132.489029 196.655969 
L 150.489029 196.655969 
" style="fill:none;stroke:#2ca02c;stroke-dasharray:5.18,2.24;stroke-dashoffset:0;stroke-width:1.4;"/>
    </g>
    <g id="line2d_128"/>
    <g id="text_18">
     <!-- $\tau_{\mathrm{a}} = 2.0 \times 10^{4}dt$ -->
     <g transform="translate(157.689029 199.805969)scale(0.09 -0.09)">
      <use transform="translate(0 0.684375)" xlink:href="#DejaVuSans-Oblique-964"/>
      <use transform="translate(60.205078 -15.721875)scale(0.7)" xlink:href="#DejaVuSans-97"/>
      <use transform="translate(125.317383 0.684375)" xlink:href="#DejaVuSans-61"/>
      <use transform="translate(228.588867 0.684375)" xlink:href="#DejaVuSans-50"/>
      <use transform="translate(292.211914 0.684375)" xlink:href="#DejaVuSans-46"/>
      <use transform="translate(323.999023 0.684375)" xlink:href="#DejaVuSans-48"/>
      <use transform="translate(407.104492 0.684375)" xlink:href="#DejaVuSans-215"/>
      <use transform="translate(510.375977 0.684375)" xlink:href="#DejaVuSans-49"/>
      <use transform="translate(573.999023 0.684375)" xlink:href="#DejaVuSans-48"/>
      <use transform="translate(638.579102 38.965625)scale(0.7)" xlink:href="#DejaVuSans-52"/>
      <use transform="translate(685.849609 0.684375)" xlink:href="#DejaVuSans-Oblique-100"/>
      <use transform="translate(749.326172 0.684375)" xlink:href="#DejaVuSans-Oblique-116"/>
     </g>
    </g>
    <g id="line2d_129">
     <path d="M 132.489029 210.875969 
L 150.489029 210.875969 
" style="fill:none;stroke:#d62728;stroke-dasharray:5.18,2.24;stroke-dashoffset:0;stroke-width:1.4;"/>
    </g>
    <g id="line2d_130"/>
    <g id="text_19">
     <!-- $\tau_{\mathrm{a}} = 5.0 \times 10^{4}dt$ -->
     <g transform="translate(157.689029 214.025969)scale(0.09 -0.09)">
      <use transform="translate(0 0.684375)" xlink:href="#DejaVuSans-Oblique-964"/>
      <use transform="translate(60.205078 -15.721875)scale(0.7)" xlink:href="#DejaVuSans-97"/>
      <use transform="translate(125.317383 0.684375)" xlink:href="#DejaVuSans-61"/>
      <use transform="translate(228.588867 0.684375)" xlink:href="#DejaVuSans-53"/>
      <use transform="translate(292.211914 0.684375)" xlink:href="#DejaVuSans-46"/>
      <use transform="translate(323.999023 0.684375)" xlink:href="#DejaVuSans-48"/>
      <use transform="translate(407.104492 0.684375)" xlink:href="#DejaVuSans-215"/>
      <use transform="translate(510.375977 0.684375)" xlink:href="#DejaVuSans-49"/>
      <use transform="translate(573.999023 0.684375)" xlink:href="#DejaVuSans-48"/>
      <use transform="translate(638.579102 38.965625)scale(0.7)" xlink:href="#DejaVuSans-52"/>
      <use transform="translate(685.849609 0.684375)" xlink:href="#DejaVuSans-Oblique-100"/>
      <use transform="translate(749.326172 0.684375)" xlink:href="#DejaVuSans-Oblique-116"/>
     </g>
    </g>
    <g id="line2d_131">
     <path d="M 132.489029 225.095969 
L 150.489029 225.095969 
" style="fill:none;stroke:#9467bd;stroke-dasharray:5.18,2.24;stroke-dashoffset:0;stroke-width:1.4;"/>
    </g>
    <g id="line2d_132"/>
    <g id="text_20">
     <!-- $\tau_{\mathrm{a}} = 1.0 \times 10^{5}dt$ -->
     <g transform="translate(157.689029 228.245969)scale(0.09 -0.09)">
      <use transform="translate(0 0.684375)" xlink:href="#DejaVuSans-Oblique-964"/>
      <use transform="translate(60.205078 -15.721875)scale(0.7)" xlink:href="#DejaVuSans-97"/>
      <use transform="translate(125.317383 0.684375)" xlink:href="#DejaVuSans-61"/>
      <use transform="translate(228.588867 0.684375)" xlink:href="#DejaVuSans-49"/>
      <use transform="translate(292.211914 0.684375)" xlink:href="#DejaVuSans-46"/>
      <use transform="translate(323.999023 0.684375)" xlink:href="#DejaVuSans-48"/>
      <use transform="translate(407.104492 0.684375)" xlink:href="#DejaVuSans-215"/>
      <use transform="translate(510.375977 0.684375)" xlink:href="#DejaVuSans-49"/>
      <use transform="translate(573.999023 0.684375)" xlink:href="#DejaVuSans-48"/>
      <use transform="translate(638.579102 38.965625)scale(0.7)" xlink:href="#DejaVuSans-53"/>
      <use transform="translate(685.849609 0.684375)" xlink:href="#DejaVuSans-Oblique-100"/>
      <use transform="translate(749.326172 0.684375)" xlink:href="#DejaVuSans-Oblique-116"/>
     </g>
    </g>
    <g id="line2d_133">
     <path d="M 132.489029 238.306281 
L 150.489029 238.306281 
" style="fill:none;stroke:#000000;stroke-linecap:square;"/>
    </g>
    <g id="line2d_134"/>
    <g id="text_21">
     <!-- $\propto \tau^1$ -->
     <defs>
      <path d="M 25.734375 17.71875 
Q 33.796875 17.71875 38.625 29.4375 
Q 32.421875 42.234375 25.734375 42.234375 
Q 20.84375 42.234375 18.359375 38.71875 
Q 15.71875 34.96875 15.71875 29.984375 
Q 15.71875 24.515625 18.359375 21.140625 
Q 21.09375 17.71875 25.734375 17.71875 
z
M 60.6875 17.625 
L 60.6875 11.1875 
L 56.9375 11.1875 
Q 53.375 11.1875 50.734375 12.640625 
Q 48.09375 13.96875 45.5625 17.046875 
Q 44.046875 18.796875 41.65625 22.90625 
Q 38.375 17.046875 35.5 14.453125 
Q 31.9375 11.328125 26.265625 11.328125 
Q 19.671875 11.328125 15.328125 16.265625 
Q 10.75 21.4375 10.75 29.984375 
Q 10.75 38.1875 15.328125 43.75 
Q 19.390625 48.6875 26.375 48.6875 
Q 29.9375 48.6875 32.5625 47.21875 
Q 35.640625 45.609375 37.75 42.828125 
Q 39.703125 40.328125 41.65625 36.96875 
Q 44.921875 42.828125 47.796875 45.40625 
Q 51.375 48.53125 57.03125 48.53125 
L 60.6875 48.53125 
L 60.6875 42.140625 
L 57.5625 42.140625 
Q 50.34375 42.140625 44.671875 30.421875 
Q 50.875 17.625 57.5625 17.625 
z
" id="DejaVuSans-8733"/>
     </defs>
     <g transform="translate(157.689029 241.456281)scale(0.09 -0.09)">
      <use transform="translate(19.482422 0.684375)" xlink:href="#DejaVuSans-8733"/>
      <use transform="translate(110.400391 0.684375)" xlink:href="#DejaVuSans-Oblique-964"/>
      <use transform="translate(175.071615 38.965625)scale(0.7)" xlink:href="#DejaVuSans-49"/>
     </g>
    </g>
   </g>
  </g>
 </g>
 <defs>
  <clipPath id="p2949bfc655">
   <rect height="244.228" width="183.320904" x="53.478125" y="7.2"/>
  </clipPath>
 </defs>
</svg>
